%YAML 1.1
%TAG !u! tag:unity3d.com,2011:
--- !u!74 &7400000
AnimationClip:
  m_ObjectHideFlags: 0
  m_PrefabParentObject: {fileID: 0}
  m_PrefabInternal: {fileID: 0}
  m_Name: DoorSmallOpen
  serializedVersion: 6
  m_Legacy: 0
  m_Compressed: 0
  m_UseHighQualityCurve: 1
  m_RotationCurves: []
  m_CompressedRotationCurves: []
  m_EulerCurves: []
  m_PositionCurves:
  - curve:
      serializedVersion: 2
      m_Curve:
      - serializedVersion: 2
        time: 0
        value: {x: -0.022611618, y: 0.051711, z: 0.89167887}
        inSlope: {x: -0.62738836, y: -0.0017109998, z: -0.001678884}
        outSlope: {x: -0.62738836, y: -0.0017109998, z: -0.001678884}
        tangentMode: 0
      - serializedVersion: 2
        time: 1
        value: {x: -0.65, y: 0.05, z: 0.89}
        inSlope: {x: -0.31369418, y: -0.0008554999, z: -0.000839442}
        outSlope: {x: -0.31369418, y: -0.0008554999, z: -0.000839442}
        tangentMode: 0
      - serializedVersion: 2
        time: 1.1666666
        value: {x: -0.65, y: 0.05, z: 0.89}
        inSlope: {x: 0, y: 0, z: 0}
        outSlope: {x: 0, y: 0, z: 0}
        tangentMode: 0
      - serializedVersion: 2
        time: 2.5
        value: {x: -0.65, y: 0.05, z: 0.89}
        inSlope: {x: 0, y: 0, z: 0}
        outSlope: {x: 0, y: 0, z: 0}
        tangentMode: 0
      m_PreInfinity: 2
      m_PostInfinity: 2
      m_RotationOrder: 4
    path: DoorSmallLeft
  - curve:
      serializedVersion: 2
      m_Curve:
      - serializedVersion: 2
        time: 0
        value: {x: -0.022611618, y: 0.051711, z: 0.89167887}
        inSlope: {x: 0.5926116, y: -0.0017109998, z: -0.001678884}
        outSlope: {x: 0.5926116, y: -0.0017109998, z: -0.001678884}
        tangentMode: 0
      - serializedVersion: 2
        time: 1
        value: {x: 0.57, y: 0.05, z: 0.89}
        inSlope: {x: 0.2963058, y: -0.0008554999, z: -0.000839442}
        outSlope: {x: 0.2963058, y: -0.0008554999, z: -0.000839442}
        tangentMode: 0
      - serializedVersion: 2
        time: 1.1666666
        value: {x: 0.57, y: 0.05, z: 0.89}
        inSlope: {x: 0, y: 0, z: 0}
        outSlope: {x: 0, y: 0, z: 0}
        tangentMode: 0
      - serializedVersion: 2
        time: 2.5
        value: {x: 0.57, y: 0.05, z: 0.89}
        inSlope: {x: 0, y: 0, z: 0}
        outSlope: {x: 0, y: 0, z: 0}
        tangentMode: 0
      m_PreInfinity: 2
      m_PostInfinity: 2
      m_RotationOrder: 4
    path: DoorSmallRight
  m_ScaleCurves: []
  m_FloatCurves: []
  m_PPtrCurves: []
  m_SampleRate: 60
  m_WrapMode: 0
  m_Bounds:
    m_Center: {x: 0, y: 0, z: 0}
    m_Extent: {x: 0, y: 0, z: 0}
  m_ClipBindingConstant:
    genericBindings:
    - serializedVersion: 2
      path: 3959632946
      attribute: 1
      script: {fileID: 0}
      typeID: 4
      customType: 0
      isPPtrCurve: 0
    - serializedVersion: 2
      path: 1071819053
      attribute: 1
      script: {fileID: 0}
      typeID: 4
      customType: 0
      isPPtrCurve: 0
    pptrCurveMapping: []
  m_AnimationClipSettings:
    serializedVersion: 2
    m_AdditiveReferencePoseClip: {fileID: 0}
    m_AdditiveReferencePoseTime: 0
    m_StartTime: 0
    m_StopTime: 2.5
    m_OrientationOffsetY: 0
    m_Level: 0
    m_CycleOffset: 0
    m_HasAdditiveReferencePose: 0
    m_LoopTime: 1
    m_LoopBlend: 0
    m_LoopBlendOrientation: 0
    m_LoopBlendPositionY: 0
    m_LoopBlendPositionXZ: 0
    m_KeepOriginalOrientation: 0
    m_KeepOriginalPositionY: 1
    m_KeepOriginalPositionXZ: 0
    m_HeightFromFeet: 0
    m_Mirror: 0
  m_EditorCurves:
  - curve:
      serializedVersion: 2
      m_Curve:
      - serializedVersion: 2
        time: 0
        value: -0.022611618
        inSlope: -0.62738836
        outSlope: -0.62738836
        tangentMode: 34
      - serializedVersion: 2
        time: 1
        value: -0.65
        inSlope: -0.31369418
        outSlope: -0.31369418
        tangentMode: 34
      - serializedVersion: 2
        time: 1.1666666
        value: -0.65
        inSlope: 0
        outSlope: 0
        tangentMode: 34
      - serializedVersion: 2
        time: 2.5
        value: -0.65
        inSlope: 0
        outSlope: 0
        tangentMode: 34
      m_PreInfinity: 2
      m_PostInfinity: 2
      m_RotationOrder: 4
    attribute: m_LocalPosition.x
    path: DoorSmallLeft
    classID: 4
    script: {fileID: 0}
  - curve:
      serializedVersion: 2
      m_Curve:
      - serializedVersion: 2
        time: 0
        value: 0.051711
        inSlope: -0.0017109998
        outSlope: -0.0017109998
        tangentMode: 34
      - serializedVersion: 2
        time: 1
        value: 0.05
        inSlope: -0.0008554999
        outSlope: -0.0008554999
        tangentMode: 34
      - serializedVersion: 2
        time: 1.1666666
        value: 0.05
        inSlope: 0
        outSlope: 0
        tangentMode: 34
      - serializedVersion: 2
        time: 2.5
        value: 0.05
        inSlope: 0
        outSlope: 0
        tangentMode: 34
      m_PreInfinity: 2
      m_PostInfinity: 2
      m_RotationOrder: 4
    attribute: m_LocalPosition.y
    path: DoorSmallLeft
    classID: 4
    script: {fileID: 0}
  - curve:
      serializedVersion: 2
      m_Curve:
      - serializedVersion: 2
        time: 0
        value: 0.89167887
        inSlope: -0.001678884
        outSlope: -0.001678884
        tangentMode: 34
      - serializedVersion: 2
        time: 1
        value: 0.89
        inSlope: -0.000839442
        outSlope: -0.000839442
        tangentMode: 34
      - serializedVersion: 2
        time: 1.1666666
        value: 0.89
        inSlope: 0
        outSlope: 0
        tangentMode: 34
      - serializedVersion: 2
        time: 2.5
        value: 0.89
        inSlope: 0
        outSlope: 0
        tangentMode: 34
      m_PreInfinity: 2
      m_PostInfinity: 2
      m_RotationOrder: 4
    attribute: m_LocalPosition.z
    path: DoorSmallLeft
    classID: 4
    script: {fileID: 0}
  - curve:
      serializedVersion: 2
      m_Curve:
      - serializedVersion: 2
        time: 0
        value: -0.022611618
        inSlope: 0.5926116
        outSlope: 0.5926116
        tangentMode: 34
      - serializedVersion: 2
        time: 1
        value: 0.57
        inSlope: 0.2963058
        outSlope: 0.2963058
        tangentMode: 34
      - serializedVersion: 2
        time: 1.1666666
        value: 0.57
        inSlope: 0
        outSlope: 0
        tangentMode: 34
      - serializedVersion: 2
        time: 2.5
        value: 0.57
        inSlope: 0
        outSlope: 0
        tangentMode: 34
      m_PreInfinity: 2
      m_PostInfinity: 2
      m_RotationOrder: 4
    attribute: m_LocalPosition.x
    path: DoorSmallRight
    classID: 4
    script: {fileID: 0}
  - curve:
      serializedVersion: 2
      m_Curve:
      - serializedVersion: 2
        time: 0
        value: 0.051711
        inSlope: -0.0017109998
        outSlope: -0.0017109998
        tangentMode: 34
      - serializedVersion: 2
        time: 1
        value: 0.05
        inSlope: -0.0008554999
        outSlope: -0.0008554999
        tangentMode: 34
      - serializedVersion: 2
        time: 1.1666666
        value: 0.05
        inSlope: 0
        outSlope: 0
        tangentMode: 34
      - serializedVersion: 2
        time: 2.5
        value: 0.05
        inSlope: 0
        outSlope: 0
        tangentMode: 34
      m_PreInfinity: 2
      m_PostInfinity: 2
      m_RotationOrder: 4
    attribute: m_LocalPosition.y
    path: DoorSmallRight
    classID: 4
    script: {fileID: 0}
  - curve:
      serializedVersion: 2
      m_Curve:
      - serializedVersion: 2
        time: 0
        value: 0.89167887
        inSlope: -0.001678884
        outSlope: -0.001678884
        tangentMode: 34
      - serializedVersion: 2
        time: 1
        value: 0.89
        inSlope: -0.000839442
        outSlope: -0.000839442
        tangentMode: 34
      - serializedVersion: 2
        time: 1.1666666
        value: 0.89
        inSlope: 0
        outSlope: 0
        tangentMode: 34
      - serializedVersion: 2
        time: 2.5
        value: 0.89
        inSlope: 0
        outSlope: 0
        tangentMode: 34
      m_PreInfinity: 2
      m_PostInfinity: 2
      m_RotationOrder: 4
    attribute: m_LocalPosition.z
    path: DoorSmallRight
    classID: 4
    script: {fileID: 0}
  m_EulerEditorCurves: []
  m_HasGenericRootTransform: 0
  m_HasMotionFloatCurves: 0
  m_GenerateMotionCurves: 0
  m_Events: []
