%YAML 1.1
%TAG !u! tag:unity3d.com,2011:
--- !u!74 &7400000
AnimationClip:
  m_ObjectHideFlags: 0
  m_PrefabParentObject: {fileID: 0}
  m_PrefabInternal: {fileID: 0}
  m_Name: DoorMediumOpen
  serializedVersion: 6
  m_Legacy: 0
  m_Compressed: 0
  m_UseHighQualityCurve: 1
  m_RotationCurves: []
  m_CompressedRotationCurves: []
  m_EulerCurves: []
  m_PositionCurves:
  - curve:
      serializedVersion: 2
      m_Curve:
      - serializedVersion: 2
        time: 0
        value: {x: -0.000002861023, y: 0.051711, z: 0.98833734}
        inSlope: {x: -0.94599813, y: 0.00019266705, z: -0.00022490819}
        outSlope: {x: -0.94599813, y: 0.00019266705, z: -0.00022490819}
        tangentMode: 0
      - serializedVersion: 2
        time: 1.5
        value: {x: -1.419, y: 0.052, z: 0.988}
        inSlope: {x: -0.47299907, y: 0.000096333526, z: -0.000112454094}
        outSlope: {x: -0.47299907, y: 0.000096333526, z: -0.000112454094}
        tangentMode: 0
      - serializedVersion: 2
        time: 1.7666667
        value: {x: -1.419, y: 0.052, z: 0.988}
        inSlope: {x: 0, y: 0, z: 0}
        outSlope: {x: 0, y: 0, z: 0}
        tangentMode: 0
      - serializedVersion: 2
        time: 2
        value: {x: -1.419, y: 0.052, z: 0.988}
        inSlope: {x: 0, y: 0, z: 0}
        outSlope: {x: 0, y: 0, z: 0}
        tangentMode: 0
      - serializedVersion: 2
        time: 3.1
        value: {x: -1.419, y: 0.052, z: 0.988}
        inSlope: {x: 0, y: 0, z: 0}
        outSlope: {x: 0, y: 0, z: 0}
        tangentMode: 0
      m_PreInfinity: 2
      m_PostInfinity: 2
      m_RotationOrder: 4
    path: DoorMediumLeft
  - curve:
      serializedVersion: 2
      m_Curve:
      - serializedVersion: 2
        time: 0
        value: {x: -0.000002861023, y: 0.051711, z: 0.98833734}
        inSlope: {x: 1.0806686, y: 0.00019266705, z: -0.00022490819}
        outSlope: {x: 1.0806686, y: 0.00019266705, z: -0.00022490819}
        tangentMode: 0
      - serializedVersion: 2
        time: 1.5
        value: {x: 1.621, y: 0.052, z: 0.988}
        inSlope: {x: 0.5991708, y: 0.000106824875, z: -0.00012474756}
        outSlope: {x: 0.5991708, y: 0.000106824875, z: -0.00012474756}
        tangentMode: 0
      - serializedVersion: 2
        time: 1.7666667
        value: {x: 1.6523795, y: 0.052005596, z: 0.9879934}
        inSlope: {x: -0.008405205, y: -0.0000014987627, z: 0.0000017562061}
        outSlope: {x: -0.008405205, y: -0.0000014987627, z: 0.0000017562061}
        tangentMode: 0
      - serializedVersion: 2
        time: 2
        value: {x: 1.621, y: 0.052, z: 0.988}
        inSlope: {x: -0.0672417, y: -0.000011990112, z: 0.000014049665}
        outSlope: {x: -0.0672417, y: -0.000011990112, z: 0.000014049665}
        tangentMode: 0
      - serializedVersion: 2
        time: 3.1
        value: {x: 1.621, y: 0.052, z: 0.988}
        inSlope: {x: 0, y: 0, z: 0}
        outSlope: {x: 0, y: 0, z: 0}
        tangentMode: 0
      m_PreInfinity: 2
      m_PostInfinity: 2
      m_RotationOrder: 4
    path: DoorMediumRight
  m_ScaleCurves: []
  m_FloatCurves: []
  m_PPtrCurves: []
  m_SampleRate: 60
  m_WrapMode: 0
  m_Bounds:
    m_Center: {x: 0, y: 0, z: 0}
    m_Extent: {x: 0, y: 0, z: 0}
  m_ClipBindingConstant:
    genericBindings:
    - serializedVersion: 2
      path: 2865119557
      attribute: 1
      script: {fileID: 0}
      typeID: 4
      customType: 0
      isPPtrCurve: 0
    - serializedVersion: 2
      path: 4056254663
      attribute: 1
      script: {fileID: 0}
      typeID: 4
      customType: 0
      isPPtrCurve: 0
    pptrCurveMapping: []
  m_AnimationClipSettings:
    serializedVersion: 2
    m_AdditiveReferencePoseClip: {fileID: 0}
    m_AdditiveReferencePoseTime: 0
    m_StartTime: 0
    m_StopTime: 3.1
    m_OrientationOffsetY: 0
    m_Level: 0
    m_CycleOffset: 0
    m_HasAdditiveReferencePose: 0
    m_LoopTime: 1
    m_LoopBlend: 0
    m_LoopBlendOrientation: 0
    m_LoopBlendPositionY: 0
    m_LoopBlendPositionXZ: 0
    m_KeepOriginalOrientation: 0
    m_KeepOriginalPositionY: 1
    m_KeepOriginalPositionXZ: 0
    m_HeightFromFeet: 0
    m_Mirror: 0
  m_EditorCurves:
  - curve:
      serializedVersion: 2
      m_Curve:
      - serializedVersion: 2
        time: 0
        value: -0.000002861023
        inSlope: -0.94599813
        outSlope: -0.94599813
        tangentMode: 34
      - serializedVersion: 2
        time: 1.5
        value: -1.419
        inSlope: -0.47299907
        outSlope: -0.47299907
        tangentMode: 34
      - serializedVersion: 2
        time: 1.7666667
        value: -1.419
        inSlope: 0
        outSlope: 0
        tangentMode: 34
      - serializedVersion: 2
        time: 2
        value: -1.419
        inSlope: 0
        outSlope: 0
        tangentMode: 34
      - serializedVersion: 2
        time: 3.1
        value: -1.419
        inSlope: 0
        outSlope: 0
        tangentMode: 34
      m_PreInfinity: 2
      m_PostInfinity: 2
      m_RotationOrder: 4
    attribute: m_LocalPosition.x
    path: DoorMediumLeft
    classID: 4
    script: {fileID: 0}
  - curve:
      serializedVersion: 2
      m_Curve:
      - serializedVersion: 2
        time: 0
        value: 0.051711
        inSlope: 0.00019266705
        outSlope: 0.00019266705
        tangentMode: 34
      - serializedVersion: 2
        time: 1.5
        value: 0.052
        inSlope: 0.000096333526
        outSlope: 0.000096333526
        tangentMode: 34
      - serializedVersion: 2
        time: 1.7666667
        value: 0.052
        inSlope: 0
        outSlope: 0
        tangentMode: 34
      - serializedVersion: 2
        time: 2
        value: 0.052
        inSlope: 0
        outSlope: 0
        tangentMode: 34
      - serializedVersion: 2
        time: 3.1
        value: 0.052
        inSlope: 0
        outSlope: 0
        tangentMode: 34
      m_PreInfinity: 2
      m_PostInfinity: 2
      m_RotationOrder: 4
    attribute: m_LocalPosition.y
    path: DoorMediumLeft
    classID: 4
    script: {fileID: 0}
  - curve:
      serializedVersion: 2
      m_Curve:
      - serializedVersion: 2
        time: 0
        value: 0.98833734
        inSlope: -0.00022490819
        outSlope: -0.00022490819
        tangentMode: 34
      - serializedVersion: 2
        time: 1.5
        value: 0.988
        inSlope: -0.000112454094
        outSlope: -0.000112454094
        tangentMode: 34
      - serializedVersion: 2
        time: 1.7666667
        value: 0.988
        inSlope: 0
        outSlope: 0
        tangentMode: 34
      - serializedVersion: 2
        time: 2
        value: 0.988
        inSlope: 0
        outSlope: 0
        tangentMode: 34
      - serializedVersion: 2
        time: 3.1
        value: 0.988
        inSlope: 0
        outSlope: 0
        tangentMode: 34
      m_PreInfinity: 2
      m_PostInfinity: 2
      m_RotationOrder: 4
    attribute: m_LocalPosition.z
    path: DoorMediumLeft
    classID: 4
    script: {fileID: 0}
  - curve:
      serializedVersion: 2
      m_Curve:
      - serializedVersion: 2
        time: 0
        value: -0.000002861023
        inSlope: 1.0806686
        outSlope: 1.0806686
        tangentMode: 34
      - serializedVersion: 2
        time: 1.5
        value: 1.621
        inSlope: 0.5991708
        outSlope: 0.5991708
        tangentMode: 34
      - serializedVersion: 2
        time: 1.7666667
        value: 1.6523795
        inSlope: -0.008405205
        outSlope: -0.008405205
        tangentMode: 34
      - serializedVersion: 2
        time: 2
        value: 1.621
        inSlope: -0.0672417
        outSlope: -0.0672417
        tangentMode: 34
      - serializedVersion: 2
        time: 3.1
        value: 1.621
        inSlope: 0
        outSlope: 0
        tangentMode: 34
      m_PreInfinity: 2
      m_PostInfinity: 2
      m_RotationOrder: 4
    attribute: m_LocalPosition.x
    path: DoorMediumRight
    classID: 4
    script: {fileID: 0}
  - curve:
      serializedVersion: 2
      m_Curve:
      - serializedVersion: 2
        time: 0
        value: 0.051711
        inSlope: 0.00019266705
        outSlope: 0.00019266705
        tangentMode: 34
      - serializedVersion: 2
        time: 1.5
        value: 0.052
        inSlope: 0.000106824875
        outSlope: 0.000106824875
        tangentMode: 34
      - serializedVersion: 2
        time: 1.7666667
        value: 0.052005596
        inSlope: -0.0000014987627
        outSlope: -0.0000014987627
        tangentMode: 34
      - serializedVersion: 2
        time: 2
        value: 0.052
        inSlope: -0.000011990112
        outSlope: -0.000011990112
        tangentMode: 34
      - serializedVersion: 2
        time: 3.1
        value: 0.052
        inSlope: 0
        outSlope: 0
        tangentMode: 34
      m_PreInfinity: 2
      m_PostInfinity: 2
      m_RotationOrder: 4
    attribute: m_LocalPosition.y
    path: DoorMediumRight
    classID: 4
    script: {fileID: 0}
  - curve:
      serializedVersion: 2
      m_Curve:
      - serializedVersion: 2
        time: 0
        value: 0.98833734
        inSlope: -0.00022490819
        outSlope: -0.00022490819
        tangentMode: 34
      - serializedVersion: 2
        time: 1.5
        value: 0.988
        inSlope: -0.00012474756
        outSlope: -0.00012474756
        tangentMode: 34
      - serializedVersion: 2
        time: 1.7666667
        value: 0.9879934
        inSlope: 0.0000017562061
        outSlope: 0.0000017562061
        tangentMode: 34
      - serializedVersion: 2
        time: 2
        value: 0.988
        inSlope: 0.000014049665
        outSlope: 0.000014049665
        tangentMode: 34
      - serializedVersion: 2
        time: 3.1
        value: 0.988
        inSlope: 0
        outSlope: 0
        tangentMode: 34
      m_PreInfinity: 2
      m_PostInfinity: 2
      m_RotationOrder: 4
    attribute: m_LocalPosition.z
    path: DoorMediumRight
    classID: 4
    script: {fileID: 0}
  m_EulerEditorCurves: []
  m_HasGenericRootTransform: 0
  m_HasMotionFloatCurves: 0
  m_GenerateMotionCurves: 0
  m_Events: []
