%YAML 1.1
%TAG !u! tag:unity3d.com,2011:
--- !u!1001 &100100000
Prefab:
  m_ObjectHideFlags: 1
  serializedVersion: 2
  m_Modification:
    m_TransformParent: {fileID: 0}
    m_Modifications: []
    m_RemovedComponents: []
  m_ParentPrefab: {fileID: 0}
  m_RootGameObject: {fileID: 1874447061180748}
  m_IsPrefabParent: 1
--- !u!1 &1874447061180748
GameObject:
  m_ObjectHideFlags: 0
  m_PrefabParentObject: {fileID: 0}
  m_PrefabInternal: {fileID: 100100000}
  serializedVersion: 5
  m_Component:
  - component: {fileID: 4507606693779430}
  - component: {fileID: 114541462111927180}
  m_Layer: 0
  m_Name: sm
  m_TagString: Untagged
  m_Icon: {fileID: 0}
  m_NavMeshLayer: 0
  m_StaticEditorFlags: 0
  m_IsActive: 1
--- !u!4 &4507606693779430
Transform:
  m_ObjectHideFlags: 1
  m_PrefabParentObject: {fileID: 0}
  m_PrefabInternal: {fileID: 100100000}
  m_GameObject: {fileID: 1874447061180748}
  m_LocalRotation: {x: 0, y: 0, z: 0, w: 1}
  m_LocalPosition: {x: 321.81818, y: 98.1089, z: 8.875}
  m_LocalScale: {x: 1, y: 1, z: 1}
  m_Children: []
  m_Father: {fileID: 0}
  m_RootOrder: 0
  m_LocalEulerAnglesHint: {x: 0, y: 0, z: 0}
--- !u!114 &114541462111927180
MonoBehaviour:
  m_ObjectHideFlags: 1
  m_PrefabParentObject: {fileID: 0}
  m_PrefabInternal: {fileID: 100100000}
  m_GameObject: {fileID: 1874447061180748}
  m_Enabled: 1
  m_EditorHideFlags: 0
  m_Script: {fileID: 11500000, guid: 3200b001d21716341b0211242a4c537b, type: 3}
  m_Name: 
  m_EditorClassIdentifier: 
  PousePanel: {fileID: 0}
  isPause: 0
  score: 0
  canBeatLevel: 0
  beatLevelScore: 10
  startTime: 0
  mainScoreDisplay: {fileID: 0}
  mainTimerDisplay: {fileID: 0}
  gameOverScoreOutline: {fileID: 0}
  musicAudioSource: {fileID: 0}
  gameIsOver: 0
  playAgainButtons: {fileID: 0}
  playAgainLevelToLoad: TestScene_Kurzov_2
  nextLevelButtons: {fileID: 0}
  nextLevelToLoad: TestScene_Kurzov
