# Wavefront Obj file
# 
# verts: 636 uv-s: 636
mtllib luch_unwrap.mtl

g 1.002

v 1.312331 1.944859 14.999997
v -3.044380 4.944860 12.000001
v -1.312330 1.944859 14.999997
v -5.804568 0.164077 11.999999
v -1.312330 1.944859 14.999997
v -3.044380 4.944860 12.000001
v 0.286478 0.164074 15.499997
v 1.312331 1.944859 14.999997
v -1.312330 1.944859 14.999997
v -0.286478 0.164074 15.499997
v -2.340466 0.164076 14.999997
v -0.286478 0.164074 15.499997
v -1.312330 1.944859 14.999997
v -2.340466 0.164076 14.999997
v 3.044382 4.944859 12.000001
v 0.267853 5.100718 5.622785
v -3.044380 4.944860 12.000001
v 3.044382 4.944859 12.000001
v -0.267851 5.100718 5.622785
v -0.288204 5.106618 5.600760
v -3.044380 4.944860 12.000001
v -0.267851 5.100718 5.622785
v -14.133973 8.160254 0.000002
v -5.804568 0.164077 11.999999
v -3.044380 4.944860 12.000001
v -14.133973 8.160254 0.000002
v 2.340466 0.164075 14.999997
v 3.044382 4.944859 12.000001
v 1.312331 1.944859 14.999997
v 5.804568 0.164075 11.999999
v 14.133975 8.160253 0.000002
v 3.044382 4.944859 12.000001
v 5.804568 0.164075 11.999999
v 0.267853 5.100718 5.622785
v 3.044382 4.944859 12.000001
v 14.133975 8.160253 0.000002
v 2.340466 0.164075 14.999997
v 1.312331 1.944859 14.999997
v 0.286478 0.164074 15.499997
v 0.001142 -0.330142 15.499997
v 0.286478 0.164074 15.499997
v -0.286478 0.164074 15.499997
v 0.001142 -0.330142 15.499997
v 2.340466 0.164075 14.999997
v 0.286478 0.164074 15.499997
v -2.340466 0.164076 14.999997
v -1.028136 -2.108948 14.999997
v -0.286478 0.164074 15.499997
v 0.001142 -0.330142 15.499997
v 1.028136 -2.108948 14.999997
v 5.804568 0.164075 11.999999
v 2.340466 0.164075 14.999997
v 1.028136 -2.108948 14.999997
v 4.566565 -2.303720 5.600759
v 14.133975 8.160253 0.000002
v 5.804568 0.164075 11.999999
v 2.760186 -5.108948 11.999997
v 4.283426 -2.782329 5.622783
v 5.804568 0.164075 11.999999
v 2.760186 -5.108948 11.999997
v 4.551278 -2.318396 5.622783
v 4.551278 -2.318396 5.622783
v 0.288205 5.106618 5.600760
v -14.133973 8.160254 0.000002
v 0.288205 5.106618 5.600760
v 14.133975 8.160253 0.000002
v -0.033593 0.019397 -8.000000
v -14.133973 8.160254 0.000002
v 14.133975 8.160253 0.000002
v 4.278360 -2.802905 5.600759
v 14.133975 8.160253 0.000002
v 4.566565 -2.303720 5.600759
v -0.000002 -16.320507 -0.000006
v 0.033593 0.019397 -8.000000
v 14.133975 8.160253 0.000002
v -0.000002 -16.320507 -0.000006
v 0.033593 0.019397 -8.000000
v -0.288204 5.106618 5.600760
v 0.267853 5.100718 5.622785
v 0.288205 5.106618 5.600760
v -0.267851 5.100718 5.622785
v -0.288204 5.106618 5.600760
v -4.551279 -2.318394 5.622783
v -5.804568 0.164077 11.999999
v -14.133973 8.160254 0.000002
v -4.566566 -2.303719 5.600759
v -0.000002 -16.320507 -0.000006
v -4.566566 -2.303719 5.600759
v -14.133973 8.160254 0.000002
v 0.000000 -0.038787 -8.000000
v -0.000002 -16.320507 -0.000006
v -14.133973 8.160254 0.000002
v -0.033593 0.019397 -8.000000
v -2.760188 -5.108947 11.999997
v -5.804568 0.164077 11.999999
v -4.551279 -2.318394 5.622783
v -2.340466 0.164076 14.999997
v -5.804568 0.164077 11.999999
v -2.760188 -5.108947 11.999997
v -4.278361 -2.802904 5.600759
v -4.551279 -2.318394 5.622783
v -4.566566 -2.303719 5.600759
v -4.283427 -2.782328 5.622783
v -4.283427 -2.782328 5.622783
v -4.278361 -2.802904 5.600759
v -4.278361 -2.802904 5.600759
v -2.760188 -5.108947 11.999997
v -4.283427 -2.782328 5.622783
v -1.028136 -2.108948 14.999997
v 2.760186 -5.108948 11.999997
v -1.028136 -2.108948 14.999997
v -2.760188 -5.108947 11.999997
v -0.000002 -16.320507 -0.000006
v 2.760186 -5.108948 11.999997
v -2.760188 -5.108947 11.999997
v -0.000002 -16.320507 -0.000006
v 1.028136 -2.108948 14.999997
v 0.001142 -0.330142 15.499997
v -1.028136 -2.108948 14.999997
v 1.028136 -2.108948 14.999997
v -0.000002 -16.320507 -0.000006
v 4.283426 -2.782329 5.622783
v 2.760186 -5.108948 11.999997
v 4.566565 -2.303720 5.600759
v 4.551278 -2.318396 5.622783
v 4.283426 -2.782329 5.622783
v 4.278360 -2.802905 5.600759
v 4.278360 -2.802905 5.600759
v 0.000000 -0.038787 -8.000000
v -0.033593 0.019397 -8.000000
v 0.033593 0.019397 -8.000000
v 0.000000 -0.038787 -8.000000
# 132 positions

vt 0.141709 0.104171
vt 0.187276 0.059797
vt 0.169161 0.104171
vt 0.318766 0.104171
vt 0.358388 0.059797
vt 0.376504 0.104171
vt 0.156628 0.958130
vt 0.167358 0.977476
vt 0.139906 0.977476
vt 0.150636 0.958130
vt 0.066893 0.990000
vt 0.066893 0.967890
vt 0.085691 0.979552
vt 0.336881 0.059797
vt 0.123593 0.059797
vt 0.206357 0.923280
vt 0.241000 0.990000
vt 0.177317 0.990000
vt 0.211960 0.923280
vt 0.819703 0.807266
vt 0.886423 0.836626
vt 0.819703 0.807586
vt 0.886423 0.662452
vt 0.890406 0.588107
vt 0.832668 0.588107
vt 0.861537 0.416341
vt 0.062004 0.614090
vt 0.101626 0.569715
vt 0.083510 0.614090
vt 0.043888 0.569715
vt 0.842602 0.190436
vt 0.668427 0.190436
vt 0.677998 0.133496
vt 0.197236 0.704325
vt 0.263955 0.675285
vt 0.263958 0.849459
vt 0.365146 0.762927
vt 0.365146 0.741420
vt 0.384472 0.752186
vt 0.109593 0.895596
vt 0.103625 0.895596
vt 0.106621 0.890406
vt 0.190044 0.885024
vt 0.173333 0.904350
vt 0.184074 0.885024
vt 0.167931 0.940203
vt 0.167931 0.912752
vt 0.187257 0.929462
vt 0.187276 0.923481
vt 0.881886 0.354839
vt 0.926260 0.400406
vt 0.881886 0.382290
vt 0.200785 0.904350
vt 0.874472 0.845186
vt 0.807752 0.990000
vt 0.807752 0.815825
vt 0.926260 0.336724
vt 0.182139 0.700175
vt 0.147496 0.633455
vt 0.211179 0.633455
vt 0.176535 0.700175
vt 0.874472 0.844866
vt 0.197236 0.704646
vt 0.046857 0.694342
vt 0.113577 0.845185
vt 0.046857 0.990000
vt 0.707289 0.423527
vt 0.826667 0.276050
vt 0.826667 0.571707
vt 0.533324 0.224134
vt 0.382480 0.290854
vt 0.527295 0.224134
vt 0.678137 0.290854
vt 0.129380 0.267731
vt 0.010004 0.415210
vt 0.010000 0.119553
vt 0.707289 0.424230
vt 0.010238 0.970135
vt 0.010000 0.964318
vt 0.010238 0.964106
vt 0.010000 0.969922
vt 0.113577 0.839156
vt 0.114732 0.231098
vt 0.085691 0.164378
vt 0.259866 0.164375
vt 0.115052 0.231098
vt 0.120556 0.694342
vt 0.187276 0.845185
vt 0.120556 0.990000
vt 0.742225 0.318607
vt 0.594749 0.199228
vt 0.890406 0.199231
vt 0.742927 0.318607
vt 0.407386 0.729065
vt 0.407386 0.665382
vt 0.474106 0.694422
vt 0.938211 0.740827
vt 0.893837 0.758943
vt 0.893837 0.695260
vt 0.010238 0.984078
vt 0.010000 0.978261
vt 0.010238 0.978049
vt 0.474106 0.700026
vt 0.010000 0.983865
vt 0.187276 0.839156
vt 0.343161 0.196232
vt 0.372520 0.129512
vt 0.343481 0.196232
vt 0.938211 0.713376
vt 0.960096 0.547252
vt 0.920474 0.591626
vt 0.902358 0.547252
vt 0.835459 0.458171
vt 0.835459 0.283996
vt 0.892398 0.293567
vt 0.198346 0.129512
vt 0.316748 0.872480
vt 0.297422 0.861738
vt 0.316748 0.850972
vt 0.941980 0.591626
vt 0.666207 0.150434
vt 0.521072 0.217154
vt 0.492032 0.150434
vt 0.010000 0.942195
vt 0.010238 0.942408
vt 0.010238 0.948010
vt 0.010000 0.948223
vt 0.521391 0.217154
vt 0.129380 0.267029
vt 0.083699 0.968698
vt 0.082997 0.968698
vt 0.083348 0.968089
# 132 texture coordinates

vn 0.000000 0.707106 0.707107
vn -0.612372 0.353553 0.707107
vn 0.000000 0.270322 0.962770
vn 0.000000 0.270322 0.962770
vn -0.234347 0.135300 0.962692
vn 0.000000 0.999701 0.024432
vn 0.175405 0.979373 0.100304
vn -0.632808 0.365352 0.682695
vn 0.612372 0.353553 0.707107
vn 0.632808 0.365352 0.682695
vn -0.175423 0.979370 0.100304
vn 0.234347 0.135300 0.962692
vn 0.000000 0.000000 1.000000
vn 0.234347 -0.135300 0.962692
vn -0.234347 -0.135300 0.962692
vn -0.234126 -0.135382 0.962734
vn -0.233875 -0.135474 0.962782
vn -0.233207 -0.135720 0.962909
vn 0.612372 -0.353553 0.707107
vn 0.760457 -0.641595 0.100305
vn 0.760449 -0.641603 0.100310
vn 0.865767 -0.499851 0.024432
vn -0.175443 0.979372 0.100256
vn 0.000000 0.877983 0.478692
vn 0.000000 0.700910 -0.713250
vn 0.000000 0.700909 -0.713250
vn 0.760356 -0.438992 0.478692
vn 0.607004 -0.350455 -0.713251
vn 0.000000 0.965937 0.258779
vn 0.000000 0.965936 0.258779
vn -0.760451 -0.641600 0.100318
vn -0.760355 -0.438992 0.478692
vn -0.607006 -0.350458 -0.713248
vn -0.865767 -0.499851 0.024432
vn -0.612372 -0.353553 0.707107
vn -0.836519 -0.482965 0.258808
vn -0.935868 -0.337772 0.100307
vn -0.000000 -0.707107 0.707107
vn -0.000000 -0.730704 0.682694
vn 0.000000 -0.270601 0.962692
vn 0.935872 -0.337764 0.100299
vn 0.836521 -0.482966 0.258799
vn 0.000000 0.000000 -1.000000
# 43 normals

usemtl MTL0.006
f 1/1/1 2/2/1 3/3/1
f 4/4/2 5/5/2 6/6/2
f 7/7/3 8/8/4 9/9/4
f 10/10/4 7/7/3 9/9/4
f 11/11/5 12/12/5 13/13/5
f 14/14/2 5/5/2 4/4/2
f 1/1/1 15/15/1 2/2/1
f 16/16/6 17/17/6 18/18/6
f 19/19/6 17/17/6 16/16/6
f 20/20/7 21/21/7 22/22/7
f 20/20/7 23/23/7 21/21/7
f 24/24/8 25/25/8 26/26/8
f 27/27/9 28/28/9 29/29/9
f 30/30/9 28/28/9 27/27/9
f 31/31/10 32/32/10 33/33/10
f 34/34/11 35/35/11 36/36/11
f 37/37/12 38/38/12 39/39/12
f 40/40/13 41/41/13 42/42/13
f 43/43/14 44/44/14 45/45/14
f 46/46/15 47/47/16 48/48/17
f 49/49/18 48/48/17 47/47/16
f 50/50/19 51/51/19 52/52/19
f 53/53/14 44/44/14 43/43/14
f 54/54/20 55/55/21 56/56/21
f 57/57/19 51/51/19 50/50/19
f 58/58/22 59/59/22 60/60/22
f 58/58/22 61/61/22 59/59/22
f 54/54/20 56/56/21 62/62/20
f 63/63/23 34/34/11 36/36/11
f 64/64/24 65/65/24 66/66/24
f 67/67/25 68/68/26 69/69/26
f 70/70/27 71/71/27 72/72/27
f 70/70/27 73/73/27 71/71/27
f 74/74/28 75/75/28 76/76/28
f 67/67/25 69/69/26 77/77/25
f 78/78/29 79/79/30 80/80/30
f 78/78/29 81/81/29 79/79/30
f 82/82/24 65/65/24 64/64/24
f 83/83/31 84/84/31 85/85/31
f 86/86/31 83/83/31 85/85/31
f 87/87/32 88/88/32 89/89/32
f 90/90/33 91/91/33 92/92/33
f 93/93/33 90/90/33 92/92/33
f 94/94/34 95/95/34 96/96/34
f 97/97/35 98/98/35 99/99/35
f 100/100/36 101/101/36 102/102/36
f 103/103/34 94/94/34 96/96/34
f 100/100/36 104/104/36 101/101/36
f 105/105/32 88/88/32 87/87/32
f 106/106/37 107/107/37 108/108/37
f 97/97/35 99/99/35 109/109/35
f 110/110/38 111/111/38 112/112/38
f 113/113/39 114/114/39 115/115/39
f 106/106/37 116/116/37 107/107/37
f 117/117/40 118/118/40 119/119/40
f 110/110/38 120/120/38 111/111/38
f 121/121/41 122/122/41 123/123/41
f 124/124/42 125/125/42 126/126/42
f 127/127/42 124/124/42 126/126/42
f 128/128/41 122/122/41 121/121/41
f 129/129/28 74/74/28 76/76/28
f 130/130/43 131/131/43 132/132/43

g 1.001_1.004

v -14.599998 8.429314 0.000002
v -14.599998 8.429314 -0.999998
v -14.599998 13.399998 -0.999996
v -18.904736 5.943970 -0.999998
v -14.599998 13.399998 -0.999996
v -14.599998 8.429314 -0.999998
v -14.599998 13.399998 0.000004
v -23.209476 13.399998 -0.999996
v -14.599998 13.399998 0.000004
v -14.599998 13.399998 -0.999996
v -23.209476 13.399998 -0.999996
v -18.904736 5.943970 0.000002
v -14.599998 8.429314 -0.999998
v -14.599998 8.429314 0.000002
v -18.904736 5.943970 -0.999998
v -17.739368 10.241829 2.000003
v -14.599998 8.429314 0.000002
v -14.599998 13.399998 0.000004
v -17.755648 10.232430 2.000003
v -18.904736 5.943970 0.000002
v -14.599998 8.429314 0.000002
v -17.739368 10.241829 2.000003
v -23.209476 13.399998 0.000004
v -17.739368 10.260628 2.000003
v -14.599998 13.399998 0.000004
v -23.209476 13.399998 0.000004
v -17.739368 10.260628 2.000003
v -23.209476 13.399998 0.000004
v -23.209476 13.399998 -0.999996
v -18.904736 5.943970 -0.999998
v -18.904736 5.943970 0.000002
v -17.771929 10.260628 2.000003
v -23.209476 13.399998 0.000004
v -18.904736 5.943970 0.000002
v -17.755648 10.232430 2.000003
v -17.771929 10.260628 2.000003
v -17.739368 10.241829 2.000003
v -17.739368 10.260628 2.000003
v -17.771929 10.260628 2.000003
v -17.755648 10.232430 2.000003
v 0.000000 -16.858624 -0.000006
v 0.000000 -16.858624 -1.000005
v -4.304740 -19.343969 -1.000006
v 4.304740 -19.343969 -1.000006
v -4.304740 -19.343969 -1.000006
v 0.000000 -16.858624 -1.000005
v -4.304740 -19.343969 -0.000006
v 0.000000 -26.799997 -1.000008
v -4.304740 -19.343969 -0.000006
v -4.304740 -19.343969 -1.000006
v 0.000000 -26.799997 -1.000008
v 4.304740 -19.343969 -0.000006
v 0.000000 -16.858624 -1.000005
v 0.000000 -16.858624 -0.000006
v 4.304740 -19.343969 -1.000006
v 0.000000 -20.483658 1.999994
v 0.000000 -16.858624 -0.000006
v -4.304740 -19.343969 -0.000006
v 0.016280 -20.493055 1.999994
v 4.304740 -19.343969 -0.000006
v 0.000000 -16.858624 -0.000006
v 0.000000 -20.483658 1.999994
v 0.000000 -26.799997 -0.000008
v -0.016280 -20.493055 1.999994
v -4.304740 -19.343969 -0.000006
v 0.000000 -26.799997 -0.000008
v -0.016280 -20.493055 1.999994
v 0.000000 -26.799997 -0.000008
v 0.000000 -26.799997 -1.000008
v 4.304740 -19.343969 -1.000006
v 4.304740 -19.343969 -0.000006
v 0.000000 -20.521255 1.999994
v 0.000000 -26.799997 -0.000008
v 4.304740 -19.343969 -0.000006
v 0.016280 -20.493055 1.999994
v 0.000000 -20.521255 1.999994
v 0.016280 -20.493055 1.999994
v -0.016280 -20.493055 1.999994
v 0.000000 -20.521255 1.999994
v 0.000000 -20.483658 1.999994
v 14.599998 8.429314 0.000002
v 14.599998 8.429314 -0.999998
v 18.904736 5.943970 -0.999998
v 23.209476 13.399998 -0.999996
v 18.904736 5.943970 -0.999998
v 14.599998 8.429314 -0.999998
v 18.904736 5.943970 0.000002
v 23.209476 13.399998 -0.999996
v 18.904736 5.943970 0.000002
v 18.904736 5.943970 -0.999998
v 14.599998 13.399998 0.000004
v 14.599998 8.429314 -0.999998
v 14.599998 8.429314 0.000002
v 14.599998 13.399998 -0.999996
v 14.599998 13.399998 -0.999996
v 17.739368 10.241829 2.000003
v 14.599998 8.429314 0.000002
v 18.904736 5.943970 0.000002
v 17.739368 10.260628 2.000003
v 14.599998 13.399998 0.000004
v 14.599998 8.429314 0.000002
v 17.739368 10.241829 2.000003
v 23.209476 13.399998 0.000004
v 17.755648 10.232430 2.000003
v 18.904736 5.943970 0.000002
v 23.209476 13.399998 0.000004
v 17.755648 10.232430 2.000003
v 23.209476 13.399998 0.000004
v 23.209476 13.399998 -0.999996
v 14.599998 13.399998 -0.999996
v 14.599998 13.399998 0.000004
v 17.771929 10.260628 2.000003
v 23.209476 13.399998 0.000004
v 14.599998 13.399998 0.000004
v 17.739368 10.260628 2.000003
v 17.771929 10.260628 2.000003
v 17.739368 10.260628 2.000003
v 17.755648 10.232430 2.000003
v 17.771929 10.260628 2.000003
v 17.739368 10.241829 2.000003
# 120 positions

vt 0.167358 0.041870
vt 0.167358 0.052329
vt 0.115368 0.052329
vt 0.579975 0.642626
vt 0.501992 0.597602
vt 0.553981 0.597602
vt 0.115368 0.041870
vt 0.913809 0.603163
vt 0.924268 0.693211
vt 0.913809 0.693211
vt 0.501992 0.687649
vt 0.175124 0.040378
vt 0.227114 0.029919
vt 0.227114 0.040378
vt 0.175124 0.029919
vt 0.443267 0.613537
vt 0.424309 0.574605
vt 0.476298 0.574604
vt 0.768902 0.690253
vt 0.729972 0.723089
vt 0.729969 0.671100
vt 0.768902 0.690055
vt 0.924268 0.603163
vt 0.052734 0.683805
vt 0.091667 0.650968
vt 0.091666 0.741016
vt 0.443462 0.613537
vt 0.739024 0.047846
vt 0.739024 0.058305
vt 0.648977 0.058305
vt 0.648977 0.047846
vt 0.122850 0.118466
vt 0.179723 0.157398
vt 0.089675 0.157398
vt 0.122508 0.118466
vt 0.052734 0.684144
vt 0.011653 0.934326
vt 0.011821 0.934228
vt 0.011992 0.934523
vt 0.011653 0.934523
vt 0.960122 0.659350
vt 0.949663 0.659350
vt 0.949663 0.607360
vt 0.688439 0.912017
vt 0.643415 0.990000
vt 0.643415 0.938011
vt 0.960122 0.607360
vt 0.285291 0.047846
vt 0.195244 0.058304
vt 0.195244 0.047846
vt 0.733463 0.990000
vt 0.955638 0.938011
vt 0.966098 0.990000
vt 0.955638 0.990000
vt 0.966098 0.938011
vt 0.256029 0.944187
vt 0.237073 0.905253
vt 0.289063 0.905258
vt 0.748014 0.496016
vt 0.780854 0.534945
vt 0.728864 0.534951
vt 0.747817 0.496016
vt 0.285291 0.058304
vt 0.867409 0.618070
vt 0.906341 0.585237
vt 0.906340 0.675285
vt 0.256223 0.944187
vt 0.986016 0.318740
vt 0.986016 0.329199
vt 0.895968 0.329199
vt 0.895968 0.318740
vt 0.309868 0.766224
vt 0.270937 0.823097
vt 0.270935 0.733049
vt 0.309868 0.765882
vt 0.867409 0.618412
vt 0.011653 0.956433
vt 0.011821 0.956138
vt 0.011992 0.956433
vt 0.011653 0.956237
vt 0.964106 0.125528
vt 0.953647 0.125528
vt 0.953647 0.073539
vt 0.858537 0.910025
vt 0.948584 0.910025
vt 0.948584 0.962014
vt 0.964106 0.073539
vt 0.278489 0.566231
vt 0.368537 0.555772
vt 0.368537 0.566231
vt 0.621004 0.657157
vt 0.631463 0.709146
vt 0.621004 0.709146
vt 0.903561 0.988008
vt 0.631463 0.657157
vt 0.683252 0.901329
vt 0.644319 0.920285
vt 0.644321 0.868295
vt 0.929222 0.097642
vt 0.896382 0.058713
vt 0.948372 0.058709
vt 0.929416 0.097642
vt 0.278489 0.555772
vt 0.048933 0.674735
vt 0.010000 0.707568
vt 0.010002 0.617520
vt 0.683252 0.901131
vt 0.990000 0.300813
vt 0.990000 0.311272
vt 0.899952 0.311272
vt 0.899952 0.300813
vt 0.465452 0.945092
vt 0.522324 0.984024
vt 0.432276 0.984024
vt 0.465113 0.945092
vt 0.048933 0.674393
vt 0.057464 0.990000
vt 0.057635 0.989705
vt 0.057805 0.990000
vt 0.057464 0.989805
# 120 texture coordinates

vn 1.000000 0.000000 0.000000
vn -0.000000 0.000000 -1.000000
vn 0.000000 1.000000 0.000000
vn 0.500000 -0.866025 0.000000
vn 0.537300 -0.000000 0.843391
vn 0.268655 -0.465309 0.843393
vn 0.000000 0.537300 0.843391
vn -0.866025 -0.500000 0.000000
vn -0.465320 -0.268650 0.843389
vn -0.465315 -0.268650 0.843391
vn 0.000000 0.000000 1.000000
vn -0.500000 0.866025 0.000000
vn 0.500000 0.866025 0.000000
vn -0.268643 0.465330 0.843385
vn -0.268650 0.465315 0.843391
vn 0.268627 0.465318 0.843397
vn -0.268627 0.465365 0.843371
vn 0.866025 -0.500000 0.000000
vn 0.465314 -0.268640 0.843395
vn -0.500000 -0.866025 0.000000
vn -1.000000 0.000000 0.000000
vn -0.268659 -0.465316 0.843388
vn -0.537300 -0.000000 0.843391
vn 0.465319 -0.268661 0.843386
# 24 normals

usemtl MTL0.007
f 133/133/44 134/134/44 135/135/44
f 136/136/45 137/137/45 138/138/45
f 139/139/44 133/133/44 135/135/44
f 140/140/46 141/141/46 142/142/46
f 136/136/45 143/143/45 137/137/45
f 144/144/47 145/145/47 146/146/47
f 144/144/47 147/147/47 145/145/47
f 148/148/48 149/149/48 150/150/48
f 151/151/49 152/152/49 153/153/49
f 151/151/49 153/153/49 154/154/49
f 155/155/46 141/141/46 140/140/46
f 156/156/50 157/157/50 158/158/50
f 148/148/48 150/150/48 159/159/48
f 160/160/51 161/161/51 162/162/51
f 160/160/51 162/162/51 163/163/51
f 164/164/52 165/165/53 166/166/52
f 167/167/52 164/164/52 166/166/52
f 168/168/50 156/156/50 158/158/50
f 169/169/54 170/170/54 171/171/54
f 172/172/54 169/169/54 171/171/54
f 173/173/55 174/174/55 175/175/55
f 176/176/45 177/177/45 178/178/45
f 179/179/55 173/173/55 175/175/55
f 180/180/51 181/181/51 182/182/51
f 176/176/45 183/183/45 177/177/45
f 184/184/56 185/185/56 186/186/56
f 184/184/56 187/187/56 185/185/56
f 188/188/57 189/189/58 190/190/57
f 191/191/59 192/192/59 193/193/59
f 191/191/59 193/193/59 194/194/59
f 195/195/51 181/181/51 180/180/51
f 196/196/52 197/197/52 198/198/52
f 188/188/57 190/190/57 199/199/60
f 200/200/61 201/201/61 202/202/61
f 200/200/61 202/202/61 203/203/61
f 204/204/62 205/205/62 206/206/62
f 207/207/62 204/204/62 206/206/62
f 208/208/52 196/196/52 198/198/52
f 209/209/54 210/210/54 211/211/54
f 209/209/54 212/212/54 210/210/54
f 213/213/63 214/214/63 215/215/63
f 216/216/45 217/217/45 218/218/45
f 219/219/63 213/213/63 215/215/63
f 220/220/61 221/221/61 222/222/61
f 223/223/64 224/224/64 225/225/64
f 226/226/45 216/216/45 218/218/45
f 223/223/64 227/227/64 224/224/64
f 228/228/65 229/229/65 230/230/65
f 231/231/66 232/232/66 233/233/66
f 231/231/66 233/233/66 234/234/66
f 235/235/61 221/221/61 220/220/61
f 236/236/67 237/237/62 238/238/67
f 228/228/65 230/230/65 239/239/65
f 240/240/46 241/241/46 242/242/46
f 240/240/46 242/242/46 243/243/46
f 244/244/50 245/245/50 246/246/50
f 247/247/50 244/244/50 246/246/50
f 248/248/67 236/236/67 238/238/67
f 249/249/54 250/250/54 251/251/54
f 249/249/54 252/252/54 250/250/54

g 1_1.003

v -14.599998 13.399998 0.000000
v -12.999998 13.999998 0.000000
v -24.248709 13.999998 0.000000
v -13.999998 14.999998 -1.000000
v -24.248709 13.999998 0.000000
v -12.999998 13.999998 0.000000
v -23.209476 13.399998 0.000000
v -18.624352 4.258329 0.000000
v -19.490377 3.758329 -0.999999
v -18.624352 4.258329 0.000000
v -24.248709 13.999998 0.000000
v -19.990377 4.624355 -1.000000
v -25.980759 14.999998 -1.000000
v -25.980759 14.999998 -1.000000
v -12.999998 9.660254 0.000000
v -12.999998 10.660254 -1.000000
v -12.999998 13.999998 0.000000
v -12.999998 9.660254 0.000000
v -12.999998 14.999998 -1.999999
v -12.999998 14.999998 -1.000000
v -12.999998 14.999998 -1.000000
v 14.133973 8.160254 0.000000
v 12.999998 9.660254 0.000000
v -12.999998 10.660254 -1.000000
v -12.999998 9.660254 0.000000
v 12.999998 9.660254 0.000000
v -14.133973 8.160254 0.000000
v 12.999998 13.999998 0.000000
v 12.999998 10.660254 -1.000000
v 12.999998 9.660254 0.000000
v 12.999998 13.999998 0.000000
v 12.999998 10.660254 -1.000000
v 23.209476 13.399998 0.000000
v 24.248709 13.999998 0.000000
v 12.999998 14.999998 -1.000000
v 12.999998 13.999998 0.000000
v 24.248709 13.999998 0.000000
v 14.599998 13.399998 0.000000
v 14.599998 8.429314 0.000000
v 12.999998 10.660254 -1.999999
v 12.999998 14.999998 -1.000000
v 18.904736 5.943970 0.000000
v 18.624352 4.258329 0.000000
v 19.990377 4.624355 -1.000000
v 24.248709 13.999998 0.000000
v 18.624352 4.258329 0.000000
v 25.980759 14.999998 -1.000000
v 13.999998 14.999998 -1.000000
v 25.980759 14.999998 -1.000000
v 14.866023 6.428202 0.000000
v 15.732048 5.928204 -1.000000
v 18.624352 4.258329 0.000000
v 14.866023 6.428202 0.000000
v 19.490377 3.758329 -1.999999
v 19.490377 3.758329 -0.999999
v 19.490377 3.758329 -0.999999
v 1.866025 -16.088455 0.000000
v 15.732048 5.928204 -1.000000
v 14.866023 6.428202 0.000000
v 1.866025 -16.088455 0.000000
v 4.304740 -19.343969 0.000000
v 5.624355 -18.258327 0.000000
v 2.732050 -16.588455 -1.000000
v 1.866025 -16.088455 0.000000
v 5.624355 -18.258327 0.000000
v 0.000000 -16.320505 0.000000
v 2.732050 -16.588455 -1.000000
v 0.000000 -26.799997 0.000000
v 0.000000 -27.999996 0.000000
v 6.490380 -18.758327 -1.000000
v 5.624355 -18.258327 0.000000
v 0.000000 -27.999996 0.000000
v 2.732050 -16.588455 -2.000000
v 6.490380 -18.758327 -1.000000
v -4.304740 -19.343969 0.000000
v -5.624355 -18.258327 0.000000
v -5.990380 -19.624352 -1.000000
v 0.000000 -27.999996 0.000000
v -5.624355 -18.258327 0.000000
v 0.000000 -29.999996 -1.000000
v 5.990380 -19.624352 -1.000000
v 0.000000 -29.999996 -1.000000
v -1.866025 -16.088455 0.000000
v -2.732050 -16.588455 -1.000000
v -5.624355 -18.258327 0.000000
v -1.866025 -16.088455 0.000000
v -6.490380 -18.758327 -2.000000
v -6.490380 -18.758327 -1.000000
v -6.490380 -18.758327 -1.000000
v -14.599998 8.429314 0.000000
v -14.866023 6.428202 0.000000
v -2.732050 -16.588455 -1.000000
v -1.866025 -16.088455 0.000000
v -14.866023 6.428202 0.000000
v 0.000000 -16.858624 0.000000
v -18.904736 5.943970 0.000000
v -15.732048 5.928204 -1.000000
v -14.866023 6.428202 0.000000
v -18.624352 4.258329 0.000000
v -15.732048 5.928204 -1.000000
v -15.732048 5.928204 -2.000000
v -19.490377 3.758329 -0.999999
v -4.304740 -19.343969 -1.000000
v -4.304740 -19.343969 0.000000
v 0.000000 -26.799997 0.000000
v 0.000000 -16.858624 -1.000000
v 0.000000 -16.858624 0.000000
v -4.304740 -19.343969 0.000000
v -4.304740 -19.343969 -1.000000
v 0.000000 -26.799997 -1.000000
v 0.000000 -26.799997 0.000000
v 4.304740 -19.343969 0.000000
v 0.000000 -26.799997 -1.000000
v 4.304740 -19.343969 -1.000000
v 4.304740 -19.343969 0.000000
v 0.000000 -16.858624 0.000000
v 4.304740 -19.343969 -1.000000
v 0.000000 -16.858624 -1.000000
v -14.599998 8.429314 -1.000000
v -14.599998 8.429314 0.000000
v -14.599998 13.399998 0.000000
v -18.904736 5.943970 -1.000000
v -18.904736 5.943970 0.000000
v -14.599998 8.429314 0.000000
v -14.599998 8.429314 -1.000000
v -14.599998 13.399998 -1.000000
v -14.599998 13.399998 0.000000
v -23.209476 13.399998 0.000000
v -14.599998 13.399998 -1.000000
v -23.209476 13.399998 -1.000000
v -23.209476 13.399998 0.000000
v -18.904736 5.943970 0.000000
v -23.209476 13.399998 -1.000000
v -18.904736 5.943970 -1.000000
v 18.904736 5.943970 -1.000000
v 18.904736 5.943970 0.000000
v 23.209476 13.399998 0.000000
v 14.599998 8.429314 -1.000000
v 14.599998 8.429314 0.000000
v 18.904736 5.943970 0.000000
v 18.904736 5.943970 -1.000000
v 23.209476 13.399998 -1.000000
v 23.209476 13.399998 0.000000
v 14.599998 13.399998 0.000000
v 23.209476 13.399998 -1.000000
v 14.599998 13.399998 -1.000000
v 14.599998 13.399998 0.000000
v 14.599998 8.429314 0.000000
v 14.599998 13.399998 -1.000000
v 14.599998 8.429314 -1.000000
v 0.033593 0.019395 -7.999999
v 14.133973 8.160254 0.000000
v -14.133973 8.160254 0.000000
v 0.000000 -0.038790 -7.999999
v 0.000000 -16.320505 0.000000
v 14.133973 8.160254 0.000000
v 0.033593 0.019395 -7.999999
v -0.033593 0.019395 -7.999999
v -14.133973 8.160254 0.000000
v 0.000000 -16.320505 0.000000
v -0.033593 0.019395 -7.999999
v 0.000000 -0.038790 -7.999999
v -25.999996 0.000000 -1.000000
v -19.490377 3.758329 -0.999999
v -19.990377 4.624355 -1.000000
v -19.990377 4.624353 -1.999999
v -19.490377 3.758329 -0.999999
v -25.999996 0.000000 -1.000000
v -19.490377 3.758329 -1.999999
v -19.490377 3.758329 -0.999999
v -19.990377 4.624353 -1.999999
v -19.490377 3.758329 -1.999999
v -19.990377 4.624353 -1.999999
v -19.990377 4.624355 -1.000000
v -25.980759 14.999998 -1.000000
v -19.990377 4.624353 -1.999999
v -25.999996 0.000000 -1.000000
v -19.990377 4.624355 -1.000000
v -25.980759 14.999998 -1.999999
v -25.980759 14.999998 -1.999999
v -25.980759 14.999998 -1.000000
v -13.999998 14.999998 -1.000000
v -17.760185 10.215503 -11.999998
v -19.490377 3.758329 -1.999999
v -19.990377 4.624353 -1.999999
v -25.980759 14.999998 -1.999999
v -17.760185 10.215503 -11.999998
v -15.732048 5.928204 -2.000000
v -19.490377 3.758329 -1.999999
v -2.732050 -16.588455 -2.000000
v -15.732048 5.928204 -1.000000
v -15.732048 5.928204 -2.000000
v -2.732050 -16.588455 -1.000000
v -15.378222 8.878621 -7.031172
v -2.732050 -16.588455 -2.000000
v -15.732048 5.928204 -2.000000
v -15.378222 8.878621 -7.031172
v -2.732050 -16.588455 -2.000000
v 0.000000 -17.757242 -7.031172
v -6.490380 -18.758327 -2.000000
v -2.732050 -16.588455 -2.000000
v 0.000000 -17.757242 -7.031172
v -5.990380 -19.624352 -2.000000
v -6.490380 -18.758327 -1.000000
v -6.490380 -18.758327 -2.000000
v -0.033209 -20.488522 -11.999998
v -5.990380 -19.624352 -2.000000
v -6.490380 -18.758327 -2.000000
v 0.000000 -20.469349 -11.999998
v -0.033209 -20.488522 -11.999998
v -12.999998 -22.516659 -1.000000
v -6.490380 -18.758327 -1.000000
v -5.990380 -19.624352 -2.000000
v -5.990380 -19.624352 -1.000000
v -6.490380 -18.758327 -1.000000
v -12.999998 -22.516659 -1.000000
v -5.990380 -19.624352 -1.000000
v -12.999998 -22.516659 -1.000000
v -5.990380 -19.624352 -2.000000
v 0.000000 -29.999996 -2.000000
v -5.990380 -19.624352 -1.000000
v -5.990380 -19.624352 -2.000000
v 0.000000 -20.546041 -11.999998
v 0.000000 -29.999996 -2.000000
v 0.000000 -29.999996 -1.000000
v 5.990380 -19.624352 -2.000000
v 5.990380 -19.624352 -1.000000
v 0.000000 -29.999996 -1.000000
v 0.000000 -29.999996 -2.000000
v 12.999998 -22.516659 -1.000000
v 6.490380 -18.758327 -1.000000
v 5.990380 -19.624352 -1.000000
v 5.990380 -19.624352 -2.000000
v 6.490380 -18.758327 -1.000000
v 12.999998 -22.516659 -1.000000
v 6.490380 -18.758327 -2.000000
v 6.490380 -18.758327 -1.000000
v 5.990380 -19.624352 -2.000000
v 6.490380 -18.758327 -2.000000
v 5.990380 -19.624352 -2.000000
v 12.999998 -22.516659 -1.000000
v 5.990380 -19.624352 -1.000000
v 0.033209 -20.488522 -11.999998
v 6.490380 -18.758327 -2.000000
v 5.990380 -19.624352 -2.000000
v 0.000000 -29.999996 -2.000000
v 0.033209 -20.488522 -11.999998
v 2.732050 -16.588455 -2.000000
v 6.490380 -18.758327 -2.000000
v 15.732048 5.928204 -2.000000
v 2.732050 -16.588455 -1.000000
v 2.732050 -16.588455 -2.000000
v 15.732048 5.928204 -1.000000
v 0.000000 -17.757242 -7.031172
v 15.732048 5.928204 -2.000000
v 2.732050 -16.588455 -2.000000
v 0.000000 -17.757242 -7.031172
v 15.732048 5.928204 -2.000000
v 15.378222 8.878621 -7.031172
v 19.490377 3.758329 -1.999999
v 15.732048 5.928204 -2.000000
v 15.378222 8.878621 -7.031172
v 19.990377 4.624353 -1.999999
v 19.490377 3.758329 -0.999999
v 19.490377 3.758329 -1.999999
v 17.760185 10.215503 -11.999998
v 19.990377 4.624353 -1.999999
v 19.490377 3.758329 -1.999999
v 17.726973 10.234674 -11.999998
v 17.760185 10.215503 -11.999998
v 25.999996 0.000000 -1.000000
v 19.490377 3.758329 -0.999999
v 19.990377 4.624353 -1.999999
v 19.990377 4.624355 -1.000000
v 19.490377 3.758329 -0.999999
v 25.999996 0.000000 -1.000000
v 19.990377 4.624355 -1.000000
v 25.999996 0.000000 -1.000000
v 19.990377 4.624353 -1.999999
v 25.980759 14.999998 -1.999999
v 19.990377 4.624355 -1.000000
v 19.990377 4.624353 -1.999999
v 17.793394 10.273021 -11.999998
v 25.980759 14.999998 -1.999999
v 25.980759 14.999998 -1.000000
v 13.999998 14.999998 -1.999999
v 13.999998 14.999998 -1.000000
v 25.980759 14.999998 -1.000000
v 25.980759 14.999998 -1.999999
v 12.999998 22.516659 -1.000000
v 12.999998 14.999998 -1.000000
v 13.999998 14.999998 -1.000000
v 13.999998 14.999998 -1.999999
v 12.999998 22.516659 -1.000000
v 13.999998 14.999998 -1.000000
v 13.999998 14.999998 -1.999999
v 12.999998 14.999998 -1.000000
v 12.999998 22.516659 -1.000000
v 12.999998 14.999998 -1.999999
v 12.999998 14.999998 -1.000000
v 13.999998 14.999998 -1.999999
v 12.999998 14.999998 -1.999999
v 17.726973 10.273021 -11.999998
v 12.999998 14.999998 -1.999999
v 13.999998 14.999998 -1.999999
v 25.980759 14.999998 -1.999999
v 17.726973 10.273021 -11.999998
v 12.999998 10.660254 -1.999999
v 12.999998 14.999998 -1.999999
v -12.999998 10.660254 -1.999999
v 12.999998 10.660254 -1.000000
v 12.999998 10.660254 -1.999999
v -12.999998 10.660254 -1.000000
v 15.378222 8.878621 -7.031172
v -12.999998 10.660254 -1.999999
v 12.999998 10.660254 -1.999999
v 15.378222 8.878621 -7.031172
v -12.999998 10.660254 -1.999999
v -15.378222 8.878621 -7.031172
v -12.999998 14.999998 -1.999999
v -12.999998 10.660254 -1.999999
v -15.378222 8.878621 -7.031172
v -13.999998 14.999998 -1.999999
v -12.999998 14.999998 -1.000000
v -12.999998 14.999998 -1.999999
v -17.726973 10.273021 -11.999998
v -13.999998 14.999998 -1.999999
v -12.999998 14.999998 -1.999999
v -17.726973 10.234674 -11.999998
v -17.726973 10.273021 -11.999998
v -12.999998 22.516659 -1.000000
v -12.999998 14.999998 -1.000000
v -13.999998 14.999998 -1.999999
v -13.999998 14.999998 -1.000000
v -12.999998 14.999998 -1.000000
v -12.999998 22.516659 -1.000000
v -13.999998 14.999998 -1.000000
v -12.999998 22.516659 -1.000000
v -13.999998 14.999998 -1.999999
v -13.999998 14.999998 -1.999999
v -17.793394 10.273021 -11.999998
v -25.980759 14.999998 -1.999999
v -17.793394 10.273021 -11.999998
v -17.726973 10.273021 -11.999998
v -17.760185 10.215503 -11.999998
v -17.793394 10.273021 -11.999998
v -17.726973 10.234674 -11.999998
v -17.726973 10.234674 -11.999998
v -0.063561 0.036697 -31.999996
v 0.063561 0.036697 -31.999996
v -0.063561 0.036697 -31.999996
v 0.000000 -0.073394 -31.999996
v 0.000000 -0.073394 -31.999996
v 0.000000 -20.469349 -11.999998
v 0.063561 0.036697 -31.999996
v 0.000000 -0.073394 -31.999996
v -0.063561 0.036697 -31.999996
v 0.063561 0.036697 -31.999996
v 0.033209 -20.488522 -11.999998
v -0.033209 -20.488522 -11.999998
v 0.000000 -20.469349 -11.999998
v 0.000000 -20.546041 -11.999998
v 0.000000 -20.546041 -11.999998
v 17.726973 10.234674 -11.999998
v 17.793394 10.273021 -11.999998
v 17.760185 10.215503 -11.999998
v 17.726973 10.234674 -11.999998
v 17.726973 10.273021 -11.999998
v 17.793394 10.273021 -11.999998
v 4.304740 -19.343969 -1.000000
v 0.000000 -16.858624 -1.000000
v -4.304740 -19.343969 -1.000000
v 0.000000 -26.799997 -1.000000
v -23.209476 13.399998 -1.000000
v -14.599998 8.429314 -1.000000
v -14.599998 13.399998 -1.000000
v -18.904736 5.943970 -1.000000
v 14.599998 13.399998 -1.000000
v 14.599998 8.429314 -1.000000
v 18.904736 5.943970 -1.000000
v 23.209476 13.399998 -1.000000
v -0.033593 0.019395 -7.999999
v 0.000000 -0.038790 -7.999999
v 0.033593 0.019395 -7.999999
# 384 positions

vt 0.416109 0.556862
vt 0.399370 0.550590
vt 0.517014 0.550502
vt 0.908333 0.777048
vt 0.893542 0.884243
vt 0.893542 0.766593
vt 0.506145 0.556778
vt 0.458221 0.652398
vt 0.135170 0.566580
vt 0.135170 0.551789
vt 0.252820 0.551789
vt 0.145626 0.566580
vt 0.270935 0.566580
vt 0.908333 0.902358
vt 0.399370 0.595977
vt 0.955638 0.247453
vt 0.945179 0.282384
vt 0.945179 0.236997
vt 0.966098 0.292846
vt 0.955638 0.292846
vt 0.908333 0.766593
vt 0.115672 0.611804
vt 0.127550 0.596125
vt 0.035894 0.990000
vt 0.021103 0.990000
vt 0.021103 0.718063
vt 0.411200 0.611665
vt 0.127633 0.550751
vt 0.841112 0.979541
vt 0.830650 0.969082
vt 0.876043 0.969082
vt 0.035894 0.718063
vt 0.020857 0.556862
vt 0.010000 0.550570
vt 0.270935 0.573699
vt 0.270935 0.588491
vt 0.153284 0.588491
vt 0.110893 0.556999
vt 0.110805 0.608987
vt 0.841112 0.990000
vt 0.886499 0.979541
vt 0.065754 0.634922
vt 0.068669 0.652556
vt 0.113577 0.675463
vt 0.098786 0.782658
vt 0.098786 0.665007
vt 0.113577 0.800772
vt 0.260473 0.573699
vt 0.135170 0.573699
vt 0.108025 0.629921
vt 0.924689 0.173833
vt 0.959620 0.184292
vt 0.914233 0.184292
vt 0.970081 0.163374
vt 0.970081 0.173833
vt 0.113577 0.665007
vt 0.244221 0.865439
vt 0.635447 0.990000
vt 0.620656 0.990000
vt 0.620656 0.718063
vt 0.218790 0.899565
vt 0.204965 0.888251
vt 0.229605 0.672872
vt 0.219146 0.683328
vt 0.219146 0.637941
vt 0.263746 0.867877
vt 0.635447 0.718063
vt 0.264035 0.977447
vt 0.264077 0.990000
vt 0.381631 0.344316
vt 0.396423 0.344316
vt 0.396423 0.461967
vt 0.240065 0.672872
vt 0.229605 0.627480
vt 0.308873 0.899383
vt 0.322645 0.887990
vt 0.785016 0.093659
vt 0.892211 0.108450
vt 0.774560 0.108450
vt 0.910325 0.093659
vt 0.381631 0.354772
vt 0.381631 0.480081
vt 0.283277 0.865427
vt 0.946679 0.800352
vt 0.957138 0.765421
vt 0.957138 0.810808
vt 0.936220 0.754959
vt 0.946679 0.754959
vt 0.774560 0.093659
vt 0.416068 0.608837
vt 0.418894 0.629756
vt 0.800772 0.990000
vt 0.785981 0.990000
vt 0.785981 0.718063
vt 0.263770 0.873507
vt 0.461136 0.634765
vt 0.973565 0.144945
vt 0.984024 0.155406
vt 0.938635 0.155406
vt 0.800772 0.718063
vt 0.973565 0.134489
vt 0.928175 0.144945
vt 0.010000 0.021951
vt 0.020459 0.021951
vt 0.020459 0.111999
vt 0.089675 0.029919
vt 0.089675 0.040378
vt 0.037685 0.040378
vt 0.037685 0.029919
vt 0.940203 0.539837
vt 0.929744 0.539837
vt 0.929744 0.449790
vt 0.010000 0.111999
vt 0.649390 0.029919
vt 0.649390 0.040378
vt 0.597401 0.040378
vt 0.940203 0.449790
vt 0.597401 0.029919
vt 0.205203 0.876463
vt 0.194744 0.876463
vt 0.194744 0.824474
vt 0.404390 0.372520
vt 0.414849 0.372520
vt 0.414849 0.424510
vt 0.404390 0.424510
vt 0.942195 0.697195
vt 0.931736 0.697195
vt 0.931736 0.607147
vt 0.205203 0.824474
vt 0.850569 0.057805
vt 0.850569 0.068264
vt 0.760521 0.068264
vt 0.942195 0.607147
vt 0.760521 0.057805
vt 0.944187 0.902358
vt 0.933728 0.902358
vt 0.933728 0.812310
vt 0.962114 0.454187
vt 0.951655 0.454187
vt 0.951655 0.402197
vt 0.962114 0.402197
vt 0.944187 0.442236
vt 0.933728 0.442236
vt 0.933728 0.352188
vt 0.944187 0.812310
vt 0.962114 0.394431
vt 0.951655 0.394431
vt 0.951655 0.342441
vt 0.944187 0.352188
vt 0.962114 0.342441
vt 0.601718 0.602796
vt 0.721094 0.455318
vt 0.721098 0.750976
vt 0.255134 0.329910
vt 0.374512 0.182432
vt 0.374512 0.478089
vt 0.255134 0.330612
vt 0.659482 0.841820
vt 0.778862 0.694342
vt 0.778858 0.990000
vt 0.601718 0.603498
vt 0.659482 0.842522
vt 0.808240 0.808740
vt 0.808240 0.730121
vt 0.818699 0.730121
vt 0.356585 0.573699
vt 0.356585 0.588491
vt 0.277967 0.588491
vt 0.223130 0.867004
vt 0.212668 0.867004
vt 0.223130 0.856545
vt 0.928175 0.134489
vt 0.894390 0.075732
vt 0.894390 0.086191
vt 0.769081 0.086191
vt 0.554146 0.043862
vt 0.633455 0.054321
vt 0.554146 0.054321
vt 0.769081 0.075732
vt 0.926260 0.902358
vt 0.915801 0.902358
vt 0.915801 0.777048
vt 0.248350 0.320891
vt 0.198910 0.205204
vt 0.209365 0.205204
vt 0.334675 0.205203
vt 0.509636 0.121454
vt 0.617610 0.079715
vt 0.635447 0.121454
vt 0.146396 0.122045
vt 0.418333 0.111585
vt 0.418333 0.122045
vt 0.146396 0.111585
vt 0.335049 0.793105
vt 0.564061 0.990000
vt 0.328641 0.853881
vt 0.556764 0.085453
vt 0.936220 0.800352
vt 0.679415 0.801773
vt 0.643415 0.723089
vt 0.685153 0.740927
vt 0.613537 0.954125
vt 0.181301 0.788821
vt 0.191760 0.799283
vt 0.181301 0.799283
vt 0.423953 0.426142
vt 0.384974 0.541829
vt 0.374512 0.541829
vt 0.643783 0.849054
vt 0.643415 0.848900
vt 0.852561 0.609553
vt 0.867097 0.686814
vt 0.852561 0.689552
vt 0.459105 0.043862
vt 0.459105 0.054323
vt 0.380488 0.054323
vt 0.292846 0.045854
vt 0.372156 0.045854
vt 0.292846 0.056315
vt 0.195422 0.076231
vt 0.320732 0.065772
vt 0.320732 0.076231
vt 0.424649 0.426142
vt 0.510277 0.541829
vt 0.195422 0.065772
vt 0.310772 0.093659
vt 0.310772 0.104118
vt 0.185463 0.104118
vt 0.185463 0.093659
vt 0.951655 0.902358
vt 0.951655 0.823739
vt 0.962114 0.823739
vt 0.107602 0.990000
vt 0.092810 0.990000
vt 0.092810 0.911381
vt 0.193752 0.806748
vt 0.193752 0.817210
vt 0.183293 0.806748
vt 0.240065 0.627480
vt 0.027927 0.047436
vt 0.107926 0.047436
vt 0.029296 0.057805
vt 0.300133 0.741176
vt 0.250698 0.625488
vt 0.261154 0.625488
vt 0.386463 0.625488
vt 0.922185 0.538169
vt 0.880447 0.430195
vt 0.922185 0.412358
vt 0.674241 0.126028
vt 0.946179 0.115569
vt 0.946179 0.126028
vt 0.674241 0.115569
vt 0.542130 0.577309
vt 0.739024 0.348297
vt 0.602911 0.583717
vt 0.886185 0.491041
vt 0.924689 0.163374
vt 0.437251 0.115716
vt 0.515935 0.079715
vt 0.498098 0.121454
vt 0.703149 0.298821
vt 0.109593 0.914309
vt 0.099134 0.903847
vt 0.109593 0.903847
vt 0.340294 0.874312
vt 0.301315 0.990000
vt 0.290854 0.990000
vt 0.389971 0.080084
vt 0.390124 0.079715
vt 0.123537 0.245041
vt 0.200798 0.230504
vt 0.203536 0.245041
vt 0.492032 0.693211
vt 0.481665 0.691831
vt 0.492032 0.613902
vt 0.466138 0.043862
vt 0.545448 0.043862
vt 0.466138 0.054323
vt 0.382664 0.072248
vt 0.507967 0.061789
vt 0.507967 0.072248
vt 0.340990 0.874312
vt 0.426619 0.990000
vt 0.382664 0.061789
vt 0.641423 0.061789
vt 0.641423 0.072248
vt 0.516119 0.072248
vt 0.516119 0.061789
vt 0.936220 0.043862
vt 0.858285 0.054230
vt 0.856905 0.043862
vt 0.747352 0.039878
vt 0.826667 0.050337
vt 0.747352 0.050337
vt 0.241057 0.197236
vt 0.243795 0.182699
vt 0.321056 0.197236
vt 0.081707 0.960122
vt 0.071248 0.960122
vt 0.081707 0.949666
vt 0.886499 0.990000
vt 0.728906 0.644732
vt 0.844594 0.595286
vt 0.844594 0.605753
vt 0.844594 0.731057
vt 0.641100 0.107511
vt 0.749079 0.065772
vt 0.766911 0.107511
vt 0.393394 0.139971
vt 0.665325 0.129512
vt 0.665325 0.139971
vt 0.393394 0.129512
vt 0.206900 0.263342
vt 0.010000 0.492354
vt 0.146113 0.256934
vt 0.688233 0.071510
vt 0.966098 0.247453
vt 0.841607 0.179456
vt 0.920285 0.143455
vt 0.902453 0.185193
vt 0.045875 0.541829
vt 0.175325 0.958130
vt 0.164866 0.947674
vt 0.175325 0.947674
vt 0.498167 0.194882
vt 0.382480 0.155903
vt 0.382480 0.145447
vt 0.794320 0.143824
vt 0.794474 0.143455
vt 0.027927 0.073740
vt 0.105188 0.059203
vt 0.107926 0.073740
vt 0.958130 0.540772
vt 0.947674 0.540772
vt 0.947674 0.462154
vt 0.949663 0.746992
vt 0.949663 0.667677
vt 0.960122 0.746992
vt 0.926260 0.777048
vt 0.498167 0.195578
vt 0.382480 0.281218
vt 0.249041 0.320891
vt 0.011296 0.926862
vt 0.011650 0.926260
vt 0.011992 0.926862
vt 0.509483 0.121085
vt 0.011296 0.926461
vt 0.612386 0.633443
vt 0.366557 0.540678
vt 0.365896 0.541829
vt 0.613537 0.634110
vt 0.382468 0.299972
vt 0.921817 0.538322
vt 0.011992 0.917452
vt 0.010658 0.917452
vt 0.011331 0.916301
vt 0.383134 0.298821
vt 0.079114 0.942195
vt 0.079715 0.941853
vt 0.079515 0.942195
vt 0.079114 0.941499
vt 0.300829 0.741176
vt 0.640946 0.107142
vt 0.083699 0.934228
vt 0.083098 0.933885
vt 0.083298 0.933531
vt 0.083699 0.933531
vt 0.728906 0.645429
vt 0.729065 0.543408
vt 0.781049 0.543408
vt 0.807046 0.588432
vt 0.729065 0.633455
vt 0.123950 0.081707
vt 0.033902 0.133691
vt 0.033902 0.081707
vt 0.078926 0.159689
vt 0.936220 0.283300
vt 0.884236 0.283300
vt 0.858238 0.238276
vt 0.936220 0.193252
vt 0.011992 0.908942
vt 0.011284 0.908942
vt 0.011638 0.908333
# 384 texture coordinates

vn -0.000000 0.000000 1.000000
vn 0.000000 0.707107 0.707107
vn -0.612373 -0.353554 0.707106
vn 1.000000 0.000000 0.000000
vn -1.000000 0.000000 0.000000
vn 0.612373 -0.353553 0.707107
vn -0.500000 -0.866025 -0.000000
vn 0.500000 0.866025 -0.000000
vn 0.612374 -0.353555 0.707104
vn -0.500000 0.866025 -0.000000
vn 0.500000 -0.866025 -0.000000
vn 0.866025 0.500000 0.000000
vn -0.866025 0.500000 0.000000
vn 0.000000 -1.000000 0.000000
vn 0.000000 -0.700910 0.713250
vn 0.000000 -0.700909 0.713251
vn -0.607005 0.350454 0.713251
vn -0.607005 0.350455 0.713250
vn 0.607007 0.350454 0.713249
vn 0.353554 -0.612373 -0.707106
vn -0.866025 -0.500000 0.000000
vn -0.609841 0.792524 -0.000002
vn 0.000000 1.000000 0.000000
vn -0.782957 -0.452046 -0.427355
vn -0.782958 -0.452041 -0.427358
vn 0.452031 -0.782966 -0.427355
vn -0.816352 -0.471320 -0.333807
vn -0.452038 0.782961 -0.427356
vn -0.782959 -0.452039 -0.427359
vn -0.353554 0.612373 -0.707106
vn 0.381426 -0.924400 0.000000
vn 0.866025 -0.500000 0.000000
vn 0.353554 0.612373 -0.707106
vn -0.381426 -0.924400 0.000000
vn 0.782958 -0.452042 -0.427358
vn 0.452038 0.782960 -0.427359
vn 0.816352 -0.471321 -0.333807
vn -0.452018 -0.782967 -0.427367
vn -0.353554 -0.612373 -0.707106
vn 0.609841 0.792524 -0.000002
vn 0.991266 0.131876 0.000000
vn -0.707106 0.000000 -0.707107
vn 0.000000 0.904083 -0.427358
vn -0.904083 -0.000000 -0.427358
vn -0.904083 -0.000000 -0.427358
vn 0.000000 0.942641 -0.333807
vn 0.904083 -0.000000 -0.427358
vn 0.000000 0.904083 -0.427358
vn 0.707106 0.000000 -0.707107
vn -0.991266 0.131876 0.000000
vn -0.782955 -0.452052 -0.427352
vn 0.000000 0.000000 -1.000000
vn 0.451982 -0.783002 -0.427341
vn 0.816352 -0.471321 -0.333805
# 54 normals

usemtl MTL0.008
f 253/253/68 254/254/68 255/255/68
f 256/256/69 257/257/69 258/258/69
f 259/259/68 255/255/68 260/260/68
f 261/261/70 262/262/70 263/263/70
f 259/259/68 253/253/68 255/255/68
f 264/264/70 261/261/70 263/263/70
f 265/265/70 264/264/70 263/263/70
f 256/256/69 266/266/69 257/257/69
f 253/253/68 267/267/68 254/254/68
f 268/268/71 269/269/71 270/270/71
f 271/271/71 269/269/71 268/268/71
f 272/272/71 269/269/71 271/271/71
f 256/256/69 258/258/69 273/273/69
f 274/274/68 275/275/68 267/267/68
f 276/276/69 277/277/69 278/278/69
f 279/279/68 267/267/68 253/253/68
f 279/279/68 274/274/68 267/267/68
f 274/274/68 280/280/68 275/275/68
f 281/281/72 282/282/72 283/283/72
f 276/276/69 278/278/69 284/284/69
f 285/285/68 286/286/68 280/280/68
f 287/287/69 288/288/69 289/289/69
f 290/290/68 285/285/68 280/280/68
f 291/291/68 290/290/68 280/280/68
f 274/274/68 291/291/68 280/280/68
f 292/292/72 283/283/72 293/293/72
f 292/292/72 281/281/72 283/283/72
f 294/294/68 295/295/68 286/286/68
f 296/296/73 297/297/73 298/298/73
f 285/285/68 294/294/68 286/286/68
f 299/299/73 297/297/73 296/296/73
f 300/300/69 289/289/69 301/301/69
f 287/287/69 289/289/69 300/300/69
f 291/291/68 302/302/68 295/295/68
f 303/303/74 304/304/74 305/305/74
f 291/291/68 295/295/68 294/294/68
f 306/306/74 304/304/74 303/303/74
f 307/307/74 304/304/74 306/306/74
f 296/296/73 298/298/73 308/308/73
f 274/274/68 309/309/68 302/302/68
f 310/310/73 311/311/73 312/312/73
f 274/274/68 302/302/68 291/291/68
f 313/313/68 314/314/68 309/309/68
f 315/315/75 316/316/75 317/317/75
f 318/318/68 313/313/68 309/309/68
f 318/318/68 309/309/68 274/274/68
f 310/310/73 312/312/73 319/319/73
f 320/320/68 321/321/68 314/314/68
f 322/322/73 323/323/73 324/324/73
f 313/313/68 320/320/68 314/314/68
f 325/325/75 317/317/75 326/326/75
f 325/325/75 315/315/75 317/317/75
f 327/327/68 328/328/68 321/321/68
f 329/329/70 330/330/70 331/331/70
f 320/320/68 327/327/68 321/321/68
f 332/332/70 330/330/70 329/329/70
f 333/333/76 324/324/73 334/334/73
f 333/333/76 322/322/73 324/324/73
f 327/327/68 335/335/68 328/328/68
f 336/336/77 337/337/77 338/338/77
f 339/339/77 337/337/77 336/336/77
f 340/340/77 337/337/77 339/339/77
f 329/329/70 331/331/70 341/341/70
f 342/342/68 343/343/68 335/335/68
f 344/344/70 345/345/70 346/346/70
f 347/347/68 335/335/68 327/327/68
f 279/279/68 335/335/68 347/347/68
f 279/279/68 342/342/68 335/335/68
f 348/348/68 260/260/68 343/343/68
f 349/349/78 350/350/78 351/351/78
f 348/348/68 343/343/68 342/342/68
f 344/344/70 346/346/70 352/352/70
f 348/348/68 259/259/68 260/260/68
f 353/353/78 351/351/78 354/354/78
f 353/353/78 349/349/78 351/351/78
f 355/355/79 356/356/79 357/357/79
f 358/358/78 359/359/78 360/360/78
f 361/361/78 358/358/78 360/360/78
f 362/362/80 363/363/80 364/364/80
f 365/365/79 355/355/79 357/357/79
f 318/318/68 347/347/68 313/313/68
f 366/366/74 367/367/74 368/368/74
f 362/362/80 364/364/80 369/369/80
f 318/318/68 279/279/68 347/347/68
f 366/366/74 368/368/74 370/370/74
f 279/279/68 253/253/68 342/342/68
f 371/371/72 372/372/72 373/373/72
f 374/374/77 375/375/77 376/376/77
f 374/374/77 376/376/77 377/377/77
f 378/378/81 379/379/81 380/380/81
f 381/381/72 371/371/72 373/373/72
f 382/382/79 383/383/79 384/384/79
f 385/385/81 378/378/81 380/380/81
f 382/382/79 384/384/79 386/386/79
f 387/387/80 388/388/80 389/389/80
f 390/390/75 391/391/75 392/392/75
f 393/393/75 390/390/75 392/392/75
f 394/394/81 395/395/81 396/396/81
f 397/397/80 387/387/80 389/389/80
f 398/398/71 399/399/71 400/400/71
f 394/394/81 396/396/81 401/401/81
f 398/398/71 400/400/71 402/402/71
f 403/403/82 404/404/83 405/405/83
f 406/406/84 407/407/85 408/408/85
f 409/409/84 406/406/84 408/408/85
f 410/410/86 411/411/86 412/412/86
f 413/413/82 403/403/82 405/405/83
f 410/410/86 412/412/86 414/414/86
f 415/415/68 416/416/68 417/417/68
f 418/418/87 419/419/87 420/420/87
f 421/421/88 422/422/88 423/423/88
f 353/353/78 354/354/78 424/424/78
f 425/425/88 426/426/88 427/427/88
f 428/428/89 429/429/89 430/430/89
f 431/431/88 425/425/88 427/427/88
f 432/432/90 433/433/90 434/434/90
f 435/435/91 436/436/92 437/437/92
f 435/435/91 437/437/92 438/438/92
f 439/439/93 440/440/93 441/441/93
f 442/442/88 443/443/88 444/444/88
f 442/442/88 445/445/88 443/443/88
f 446/446/94 447/447/94 448/448/94
f 449/449/93 440/440/93 439/439/93
f 339/339/77 336/336/77 450/450/77
f 451/451/95 452/452/95 453/453/95
f 454/454/94 447/447/94 446/446/94
f 455/455/88 456/456/88 457/457/88
f 458/458/96 459/459/92 460/460/92
f 461/461/95 452/452/95 451/451/95
f 461/461/95 462/462/95 452/452/95
f 463/463/97 464/464/97 465/465/97
f 466/466/68 467/467/68 468/468/68
f 469/469/98 470/470/98 471/471/98
f 472/472/88 473/473/88 474/474/88
f 475/475/92 459/459/92 458/458/96
f 475/475/92 476/476/92 459/459/92
f 472/472/88 477/477/88 473/473/88
f 478/478/99 479/479/99 480/480/99
f 481/481/99 478/478/99 480/480/99
f 482/482/68 483/483/68 484/484/68
f 485/485/100 486/486/100 487/487/100
f 488/488/99 489/489/99 490/490/99
f 325/325/75 326/326/75 491/491/75
f 492/492/101 493/493/101 494/494/101
f 495/495/102 496/496/102 497/497/102
f 495/495/102 497/497/102 498/498/102
f 499/499/103 500/500/103 501/501/103
f 502/502/99 503/503/99 504/504/99
f 502/502/99 505/505/99 503/503/99
f 506/506/104 507/507/104 508/508/104
f 499/499/103 509/509/103 500/500/103
f 306/306/74 303/303/74 510/510/74
f 511/511/105 512/512/105 513/513/105
f 514/514/104 507/507/104 506/506/104
f 515/515/99 516/516/99 517/517/99
f 518/518/102 519/519/102 520/520/102
f 521/521/105 512/512/105 511/511/105
f 521/521/105 522/522/105 512/512/105
f 523/523/106 524/524/106 525/525/106
f 526/526/68 527/527/68 528/528/68
f 529/529/107 530/530/107 531/531/107
f 532/532/99 533/533/99 534/534/99
f 535/535/102 519/519/102 518/518/102
f 535/535/102 536/536/102 519/519/102
f 532/532/99 537/537/99 533/533/99
f 538/538/90 539/539/90 540/540/90
f 541/541/90 538/538/90 540/540/90
f 542/542/68 543/543/68 544/544/68
f 545/545/108 546/546/108 547/547/108
f 548/548/109 549/549/109 550/550/109
f 551/551/90 552/552/90 553/553/90
f 292/292/72 293/293/72 554/554/72
f 555/555/110 556/556/110 557/557/110
f 555/555/110 557/557/110 558/558/110
f 559/559/111 560/560/112 561/561/112
f 562/562/90 563/563/90 564/564/90
f 562/562/90 565/565/90 563/563/90
f 566/566/113 567/567/113 568/568/113
f 559/559/111 569/569/112 560/560/112
f 271/271/71 268/268/71 570/570/71
f 571/571/114 572/572/114 573/573/114
f 566/566/113 574/574/113 567/567/113
f 575/575/90 576/576/90 577/577/90
f 578/578/115 579/579/110 580/580/110
f 581/581/114 572/572/114 571/571/114
f 582/582/114 572/572/114 581/581/114
f 583/583/116 584/584/116 585/585/116
f 586/586/68 587/587/68 588/588/68
f 589/589/117 590/590/117 591/591/117
f 432/432/90 434/434/90 592/592/90
f 593/593/110 594/594/110 579/579/110
f 578/578/115 593/593/110 579/579/110
f 595/595/118 435/435/91 438/438/92
f 596/596/119 597/597/119 598/598/119
f 599/599/120 449/449/93 439/439/93
f 596/596/119 600/600/119 597/597/119
f 601/601/94 454/454/94 446/446/94
f 602/602/113 603/603/113 574/574/113
f 602/602/113 574/574/113 566/566/113
f 601/601/94 604/604/94 454/454/94
f 514/514/104 506/506/104 605/605/104
f 499/499/103 606/606/103 509/509/103
f 607/607/119 608/608/119 609/609/119
f 610/610/121 514/514/104 605/605/104
f 611/611/119 612/612/119 613/613/119
f 611/611/119 614/614/119 612/612/119
f 495/495/102 498/498/102 615/615/102
f 559/559/111 616/616/111 569/569/112
f 617/617/119 618/618/119 619/619/119
f 620/620/119 617/617/119 619/619/119
f 555/555/110 558/558/110 621/621/115
f 622/622/68 623/623/68 624/624/68
f 625/625/68 622/622/68 624/624/68
f 626/626/68 627/627/68 628/628/68
f 626/626/68 629/629/68 627/627/68
f 630/630/68 631/631/68 632/632/68
f 633/633/68 630/630/68 632/632/68
f 634/634/68 635/635/68 636/636/68

# 340 faces
