# Blender v2.78 (sub 0) OBJ File: ''
# www.blender.org
mtllib yacor.mtl
o ZBrush_defualt_group
v -142.096115 111.975105 -56.093102
v -142.096115 131.975052 27.544302
v -142.096115 131.975098 -69.548119
v -131.823227 142.247971 -57.842422
v -142.096115 131.975098 -69.548119
v -142.096115 131.975052 27.544302
v -142.096115 74.464684 -92.945709
v -121.550331 131.975098 -69.548119
v -142.096115 74.464684 -92.945709
v -142.096115 131.975098 -69.548119
v -131.823227 142.247971 -57.842422
v -121.550331 131.975098 -69.548119
v -142.096115 131.975098 -69.548119
v -142.096115 111.975067 14.089266
v -142.096115 74.464622 50.941849
v -64.039909 74.464622 50.941849
v -142.096115 131.975052 27.544302
v -142.096115 74.464622 50.941849
v -121.550331 131.975052 27.544302
v -131.823227 142.247955 15.838593
v -142.096115 131.975052 27.544302
v -121.550331 131.975052 27.544302
v -131.823227 142.247955 15.838593
v -142.096115 59.116879 35.594090
v -142.096115 51.067032 108.452286
v -121.550331 51.067032 108.452286
v -142.096115 74.464622 50.941849
v -142.096115 51.067032 108.452286
v -64.039909 74.464622 50.941849
v -142.096115 -32.570354 88.452240
v -142.096115 -46.025391 108.452225
v -131.823227 39.361332 118.725128
v -142.096115 51.067032 108.452286
v -142.096115 -46.025391 108.452225
v -142.096115 37.612011 88.452286
v -121.550331 51.067032 108.452286
v -142.096115 51.067032 108.452286
v -131.823227 39.361332 118.725128
v -142.096115 -54.075188 35.594070
v -142.096115 -69.422935 50.941803
v -64.039909 -69.422935 50.941803
v -142.096115 -46.025391 108.452225
v -142.096115 -69.422935 50.941803
v -121.550331 -46.025391 108.452225
v -131.823227 -34.319691 118.725113
v -142.096115 -46.025391 108.452225
v -121.550331 -46.025391 108.452225
v -131.823227 -34.319691 118.725113
v -142.096115 -106.933350 14.089193
v -142.096115 -126.933357 27.544210
v -121.550331 -126.933357 27.544210
v -142.096115 -69.422935 50.941803
v -142.096115 -126.933357 27.544210
v -64.039909 -69.422935 50.941803
v -142.096115 -126.933311 -69.548210
v -131.823227 -137.206223 15.838511
v -142.096115 -126.933357 27.544210
v -142.096115 -126.933311 -69.548210
v -121.550331 -126.933357 27.544210
v -142.096115 -126.933357 27.544210
v -131.823227 -137.206223 15.838511
v -142.096115 -106.933334 -56.093178
v -142.096115 -69.422890 -92.945755
v -64.039909 -69.422890 -92.945755
v -142.096115 -126.933311 -69.548210
v -142.096115 -69.422890 -92.945755
v -121.550331 -126.933311 -69.548210
v -131.823227 -137.206207 -57.842510
v -142.096115 -126.933311 -69.548210
v -121.550331 -126.933311 -69.548210
v -131.823227 -137.206207 -57.842510
v -142.096115 -54.075157 -77.598000
v -142.096115 -46.025303 -150.456161
v -121.550331 -46.025303 -150.456161
v -142.096115 -69.422890 -92.945755
v -142.096115 -46.025303 -150.456161
v -64.039909 -69.422890 -92.945755
v -142.096115 37.612083 -130.456161
v -142.096115 51.067116 -150.456131
v -131.823227 -34.319595 -160.729050
v -142.096115 -46.025303 -150.456161
v -142.096115 51.067116 -150.456131
v -142.096115 -32.570278 -130.456177
v -121.550331 -46.025303 -150.456161
v -142.096115 -46.025303 -150.456161
v -131.823227 -34.319595 -160.729050
v -142.096115 59.116909 -77.597977
v -64.039909 74.464684 -92.945709
v -142.096115 51.067116 -150.456131
v -142.096115 74.464684 -92.945709
v -121.550331 51.067116 -150.456131
v -131.823227 39.361423 -160.729050
v -142.096115 51.067116 -150.456131
v -121.550331 51.067116 -150.456131
v -131.823227 39.361423 -160.729050
v -64.039909 74.464684 -92.945709
v -92.096115 -35.064400 -21.001968
v -142.096115 -106.933334 -56.093178
v -142.096115 -106.933350 14.089193
v -92.096115 -35.064400 -21.001968
v -142.096115 -54.075157 -77.598000
v -142.096115 -106.933334 -56.093178
v -92.096115 -35.064400 -21.001968
v -142.096115 -106.933350 14.089193
v -142.096115 -54.075188 35.594070
v -92.096115 2.520854 16.583307
v -142.096115 -54.075188 35.594070
v -142.096115 -32.570354 88.452240
v -92.096115 -8.348324 -10.132770
v -92.096115 -8.348324 -10.132770
v -92.096115 2.520854 16.583307
v -142.096115 -32.570354 88.452240
v -142.096115 37.612011 88.452286
v -92.096115 2.520854 16.583307
v -142.096115 37.612011 88.452286
v -142.096115 59.116879 35.594090
v -92.096115 40.106133 -21.001944
v -142.096115 59.116879 35.594090
v -142.096115 111.975067 14.089266
v -92.096115 13.390051 -10.132767
v -92.096115 13.390051 -10.132767
v -92.096115 40.106133 -21.001944
v -142.096115 111.975067 14.089266
v -142.096115 111.975105 -56.093102
v -92.096115 40.106133 -21.001944
v -142.096115 111.975105 -56.093102
v -142.096115 59.116909 -77.597977
v -92.096115 2.520878 -58.587223
v -142.096115 59.116909 -77.597977
v -142.096115 37.612083 -130.456161
v -92.096115 13.390057 -31.871141
v -92.096115 13.390057 -31.871141
v -92.096115 2.520878 -58.587223
v -142.096115 37.612083 -130.456161
v -142.096115 -32.570278 -130.456177
v -92.096115 2.520878 -58.587223
v -142.096115 -32.570278 -130.456177
v -142.096115 -54.075157 -77.598000
v -92.096115 -8.348317 -31.871145
v -92.096115 -8.348317 -31.871145
v -121.550331 152.520874 -69.548119
v -64.039909 74.464684 -92.945709
v -121.550331 131.975098 -69.548119
v -64.039909 152.520874 -92.945702
v -40.642334 131.975113 -150.456131
v -64.039909 74.464684 -92.945709
v -64.039909 152.520874 -92.945702
v -40.642334 131.975128 -171.001907
v -64.039909 74.464684 -92.945709
v -40.642334 131.975113 -150.456131
v -64.039909 74.464699 -171.001907
v -121.550331 51.067116 -150.456131
v -64.039909 74.464684 -92.945709
v -64.039909 74.464699 -171.001907
v -131.823227 142.247971 -57.842422
v -121.550331 152.520874 -69.548119
v -121.550331 131.975098 -69.548119
v -48.692158 152.520874 -77.597946
v -64.039909 152.520874 -92.945702
v -121.550331 152.520874 -69.548119
v -40.642334 152.520889 -150.456100
v -27.187305 152.520874 -130.456100
v -40.642334 152.520889 -150.456100
v -121.550331 152.520828 27.544306
v -121.550331 152.520874 -69.548119
v -101.550331 152.520859 -56.093090
v -121.550331 152.520828 27.544306
v -28.936634 142.248001 -160.729004
v -40.642334 131.975113 -150.456131
v -40.642334 152.520889 -150.456100
v -28.936634 142.248001 -160.729004
v -40.642334 131.975128 -171.001907
v -40.642334 131.975113 -150.456131
v 56.450085 152.520889 -150.456100
v -28.936634 142.248001 -160.729004
v -40.642334 152.520889 -150.456100
v 56.450085 152.520889 -150.456100
v -27.187305 111.975136 -171.001907
v -64.039909 74.464699 -171.001907
v -40.642334 131.975128 -171.001907
v -121.550331 51.067120 -171.001907
v -48.692158 59.116947 -171.001907
v -121.550331 51.067120 -171.001907
v 44.744385 142.248001 -160.729004
v 56.450085 131.975128 -171.001907
v -40.642334 131.975128 -171.001907
v 42.995056 111.975136 -171.001907
v 56.450085 131.975128 -171.001907
v -131.823227 39.361423 -160.729050
v -121.550331 51.067116 -150.456131
v -121.550331 51.067120 -171.001907
v -121.550331 -46.025299 -171.001953
v -121.550331 51.067120 -171.001907
v -101.550331 -32.570267 -171.001938
v -121.550331 -46.025299 -171.001953
v -101.550331 37.612095 -171.001938
v -121.550331 -46.025303 -150.456161
v -131.823227 -34.319595 -160.729050
v -121.550331 -46.025299 -171.001953
v -64.039909 -69.422890 -92.945755
v -121.550331 -46.025303 -150.456161
v -121.550331 -46.025299 -171.001953
v -64.039909 -69.422859 -171.001968
v -48.692158 -54.075115 -171.001968
v -64.039909 -69.422859 -171.001968
v -40.642334 -126.933296 -150.456177
v -64.039909 -69.422890 -92.945755
v -64.039909 -69.422859 -171.001968
v -40.642334 -147.479065 -150.456223
v -64.039909 -69.422890 -92.945755
v -40.642334 -126.933296 -150.456177
v -64.039909 -147.479080 -92.945793
v -121.550331 -126.933311 -69.548210
v -64.039909 -69.422890 -92.945755
v -64.039909 -147.479080 -92.945793
v -40.642334 -126.933281 -171.001968
v -27.187305 -106.933289 -171.001968
v -40.642334 -126.933281 -171.001968
v -28.936634 -137.206177 -160.729065
v -40.642334 -126.933296 -150.456177
v -40.642334 -126.933281 -171.001968
v -28.936634 -137.206177 -160.729065
v -40.642334 -147.479065 -150.456223
v -40.642334 -126.933296 -150.456177
v 56.450085 -126.933281 -171.001968
v -28.936634 -137.206177 -160.729065
v -40.642334 -126.933281 -171.001968
v 56.450085 -126.933281 -171.001968
v -27.187305 -147.479080 -130.456223
v -64.039909 -147.479080 -92.945793
v -40.642334 -147.479065 -150.456223
v -121.550331 -147.479080 -69.548210
v -48.692158 -147.479080 -77.598038
v -121.550331 -147.479080 -69.548210
v 44.744385 -137.206177 -160.729065
v -40.642334 -147.479065 -150.456223
v 56.450085 -147.479065 -150.456223
v 42.995056 -147.479080 -130.456223
v 56.450085 -147.479065 -150.456223
v -131.823227 -137.206207 -57.842510
v -121.550331 -126.933311 -69.548210
v -121.550331 -147.479080 -69.548210
v -121.550331 -147.479126 27.544207
v -121.550331 -147.479080 -69.548210
v -101.550331 -147.479111 14.089174
v -121.550331 -147.479126 27.544207
v -101.550331 -147.479095 -56.093182
v -121.550331 -126.933357 27.544210
v -131.823227 -137.206223 15.838511
v -121.550331 -147.479126 27.544207
v -64.039909 -69.422935 50.941803
v -121.550331 -126.933357 27.544210
v -121.550331 -147.479126 27.544207
v -64.039909 -147.479141 50.941776
v -48.692158 -147.479126 35.594028
v -64.039909 -147.479141 50.941776
v -40.642334 -126.933365 108.452209
v -64.039909 -69.422935 50.941803
v -64.039909 -147.479141 50.941776
v -40.642334 -126.933395 128.998001
v -64.039909 -69.422935 50.941803
v -40.642334 -126.933365 108.452209
v -64.039909 -69.422966 128.998001
v -121.550331 -46.025391 108.452225
v -64.039909 -69.422935 50.941803
v -64.039909 -69.422966 128.998001
v -40.642334 -147.479141 108.452209
v -27.187305 -147.479141 88.452217
v -40.642334 -147.479141 108.452209
v -28.936634 -137.206268 118.725098
v -40.642334 -126.933365 108.452209
v -40.642334 -147.479141 108.452209
v -28.936634 -137.206268 118.725098
v -40.642334 -126.933395 128.998001
v -40.642334 -126.933365 108.452209
v 56.450085 -147.479141 108.452209
v -28.936634 -137.206268 118.725098
v -40.642334 -147.479141 108.452209
v 56.450085 -147.479141 108.452209
v -27.187305 -106.933388 128.998001
v -64.039909 -69.422966 128.998001
v -40.642334 -126.933395 128.998001
v -121.550331 -46.025394 128.998016
v -48.692158 -54.075214 128.998001
v -121.550331 -46.025394 128.998016
v 44.744385 -137.206268 118.725098
v 56.450085 -126.933395 128.998001
v -40.642334 -126.933395 128.998001
v 42.995056 -106.933388 128.998001
v 56.450085 -126.933395 128.998001
v -131.823227 -34.319691 118.725113
v -121.550331 -46.025391 108.452225
v -121.550331 -46.025394 128.998016
v -121.550331 51.067028 128.998047
v -121.550331 -46.025394 128.998016
v -101.550331 37.612000 128.998016
v -121.550331 51.067028 128.998047
v -101.550331 -32.570366 128.998016
v -121.550331 51.067032 108.452286
v -131.823227 39.361332 118.725128
v -121.550331 51.067028 128.998047
v -64.039909 74.464622 50.941849
v -121.550331 51.067032 108.452286
v -121.550331 51.067028 128.998047
v -64.039909 74.464607 128.998047
v -48.692158 59.116848 128.998047
v -64.039909 74.464607 128.998047
v -40.642334 131.975037 108.452301
v -64.039909 74.464622 50.941849
v -64.039909 74.464607 128.998047
v -40.642334 152.520813 108.452301
v -64.039909 74.464622 50.941849
v -40.642334 131.975037 108.452301
v -64.039909 152.520813 50.941879
v -121.550331 131.975052 27.544302
v -64.039909 74.464622 50.941849
v -64.039909 152.520813 50.941879
v -40.642334 131.975021 128.998047
v -27.187305 111.975037 128.998047
v -40.642334 131.975021 128.998047
v -28.936634 142.247925 118.725197
v -40.642334 131.975037 108.452301
v -40.642334 131.975021 128.998047
v -28.936634 142.247925 118.725197
v -40.642334 152.520813 108.452301
v -40.642334 131.975037 108.452301
v 56.450085 131.975021 128.998047
v -28.936634 142.247925 118.725197
v -40.642334 131.975021 128.998047
v 56.450085 131.975021 128.998047
v -27.187305 152.520813 88.452301
v -64.039909 152.520813 50.941879
v -40.642334 152.520813 108.452301
v -121.550331 152.520828 27.544306
v -48.692158 152.520828 35.594128
v 42.995056 152.520813 88.452301
v 56.450085 152.520813 108.452301
v 44.744385 142.247925 118.725197
v 56.450085 152.520813 108.452301
v -40.642334 152.520813 108.452301
v -131.823227 142.247955 15.838593
v -121.550331 131.975052 27.544302
v -121.550331 152.520828 27.544306
v -101.550331 152.520844 14.089272
v 79.847664 152.520813 50.941879
v 56.450085 131.975037 108.452301
v 79.847664 152.520813 50.941879
v 56.450085 152.520813 108.452301
v 44.744385 142.247925 118.725197
v 56.450085 131.975037 108.452301
v 56.450085 152.520813 108.452301
v 42.995056 152.520874 -130.456100
v 79.847664 152.520874 -92.945702
v 79.847664 74.464684 -92.945709
v 56.450085 152.520889 -150.456100
v 79.847664 152.520874 -92.945702
v 56.450085 131.975113 -150.456131
v 44.744385 142.248001 -160.729004
v 56.450085 152.520889 -150.456100
v 56.450085 131.975113 -150.456131
v 64.499908 152.520874 -77.597946
v 137.358078 152.520874 -69.548119
v 137.358078 131.975098 -69.548119
v 79.847664 152.520874 -92.945702
v 137.358078 152.520874 -69.548119
v 79.847664 74.464684 -92.945709
v 117.358086 152.520844 14.089272
v 137.358078 152.520828 27.544306
v 147.630951 142.247971 -57.842422
v 137.358078 152.520874 -69.548119
v 137.358078 152.520828 27.544306
v 117.358086 152.520859 -56.093090
v 137.358078 131.975098 -69.548119
v 137.358078 152.520874 -69.548119
v 147.630951 142.247971 -57.842422
v 64.499908 152.520828 35.594128
v 79.847664 74.464622 50.941849
v 137.358078 152.520828 27.544306
v 79.847664 152.520813 50.941879
v 137.358078 131.975052 27.544302
v 147.630951 142.247955 15.838593
v 137.358078 152.520828 27.544306
v 137.358078 131.975052 27.544302
v 147.630951 142.247955 15.838593
v 79.847664 74.464622 50.941849
v 7.903877 102.520874 -58.587189
v 42.995056 152.520874 -130.456100
v -27.187305 152.520874 -130.456100
v 7.903877 102.520874 -58.587189
v 64.499908 152.520874 -77.597946
v 42.995056 152.520874 -130.456100
v 7.903877 102.520874 -58.587189
v -27.187305 152.520874 -130.456100
v -48.692158 152.520874 -77.597946
v -29.681387 102.520859 -21.001919
v -48.692158 152.520874 -77.597946
v -101.550331 152.520859 -56.093090
v -2.965311 102.520866 -31.871113
v -2.965311 102.520866 -31.871113
v -29.681387 102.520859 -21.001919
v -101.550331 152.520859 -56.093090
v -101.550331 152.520844 14.089272
v -29.681387 102.520859 -21.001919
v -101.550331 152.520844 14.089272
v -48.692158 152.520828 35.594128
v 7.903877 102.520844 16.583336
v -48.692158 152.520828 35.594128
v -27.187305 152.520813 88.452301
v -2.965311 102.520859 -10.132739
v -2.965311 102.520859 -10.132739
v 7.903877 102.520844 16.583336
v -27.187305 152.520813 88.452301
v 42.995056 152.520813 88.452301
v 7.903877 102.520844 16.583336
v 42.995056 152.520813 88.452301
v 64.499908 152.520828 35.594128
v 45.489140 102.520859 -21.001919
v 64.499908 152.520828 35.594128
v 117.358086 152.520844 14.089272
v 18.773064 102.520859 -10.132739
v 18.773064 102.520859 -10.132739
v 45.489140 102.520859 -21.001919
v 117.358086 152.520844 14.089272
v 117.358086 152.520859 -56.093090
v 45.489140 102.520859 -21.001919
v 117.358086 152.520859 -56.093090
v 64.499908 152.520874 -77.597946
v 18.773064 102.520866 -31.871113
v 18.773064 102.520866 -31.871113
v 56.450085 131.975021 128.998047
v 79.847664 74.464622 50.941849
v 56.450085 131.975037 108.452301
v 44.744385 142.247925 118.725197
v 56.450085 131.975021 128.998047
v 56.450085 131.975037 108.452301
v 79.847664 74.464607 128.998047
v 137.358078 51.067032 108.452286
v 79.847664 74.464622 50.941849
v 79.847664 74.464607 128.998047
v 157.903839 51.067032 108.452286
v 79.847664 74.464622 50.941849
v 137.358078 51.067032 108.452286
v 157.903839 74.464622 50.941849
v 137.358078 131.975052 27.544302
v 79.847664 74.464622 50.941849
v 157.903839 74.464622 50.941849
v 42.995056 111.975037 128.998047
v 79.847664 74.464607 128.998047
v 137.358078 51.067028 128.998047
v 64.499908 59.116848 128.998047
v 137.358078 51.067028 128.998047
v 147.630951 39.361332 118.725128
v 137.358078 51.067032 108.452286
v 137.358078 51.067028 128.998047
v 147.630951 39.361332 118.725128
v 157.903839 51.067032 108.452286
v 137.358078 51.067032 108.452286
v 117.358086 -32.570366 128.998016
v 137.358078 -46.025394 128.998016
v 147.630951 39.361332 118.725128
v 137.358078 51.067028 128.998047
v 137.358078 -46.025394 128.998016
v 117.358086 37.612000 128.998016
v 157.903839 59.116879 35.594090
v 157.903839 74.464622 50.941849
v 157.903839 51.067032 108.452286
v 157.903839 131.975052 27.544302
v 157.903839 111.975067 14.089266
v 157.903839 131.975052 27.544302
v 147.630951 -34.319691 118.725113
v 157.903839 -46.025391 108.452225
v 157.903839 51.067032 108.452286
v 157.903839 37.612011 88.452286
v 157.903839 -46.025391 108.452225
v 147.630951 142.247955 15.838593
v 137.358078 131.975052 27.544302
v 157.903839 131.975052 27.544302
v 157.903839 131.975098 -69.548119
v 157.903839 131.975052 27.544302
v 157.903839 131.975098 -69.548119
v 137.358078 131.975098 -69.548119
v 147.630951 142.247971 -57.842422
v 157.903839 131.975098 -69.548119
v 79.847664 74.464684 -92.945709
v 137.358078 131.975098 -69.548119
v 157.903839 131.975098 -69.548119
v 157.903839 74.464684 -92.945709
v 157.903839 111.975105 -56.093102
v 157.903839 74.464684 -92.945709
v 137.358078 51.067116 -150.456131
v 79.847664 74.464684 -92.945709
v 157.903839 74.464684 -92.945709
v 137.358078 51.067120 -171.001907
v 79.847664 74.464684 -92.945709
v 137.358078 51.067116 -150.456131
v 79.847664 74.464699 -171.001907
v 56.450085 131.975113 -150.456131
v 79.847664 74.464684 -92.945709
v 79.847664 74.464699 -171.001907
v 157.903839 51.067116 -150.456131
v 157.903839 59.116909 -77.597977
v 157.903839 51.067116 -150.456131
v 147.630951 39.361423 -160.729050
v 137.358078 51.067116 -150.456131
v 157.903839 51.067116 -150.456131
v 147.630951 39.361423 -160.729050
v 137.358078 51.067120 -171.001907
v 137.358078 51.067116 -150.456131
v 157.903839 -32.570278 -130.456177
v 157.903839 -46.025303 -150.456161
v 147.630951 39.361423 -160.729050
v 157.903839 51.067116 -150.456131
v 157.903839 -46.025303 -150.456161
v 157.903839 37.612083 -130.456161
v 64.499908 59.116947 -171.001907
v 79.847664 74.464699 -171.001907
v 137.358078 51.067120 -171.001907
v 56.450085 131.975128 -171.001907
v 117.358086 37.612095 -171.001938
v 137.358078 -46.025299 -171.001953
v 147.630951 -34.319595 -160.729050
v 137.358078 -46.025299 -171.001953
v 137.358078 51.067120 -171.001907
v 44.744385 142.248001 -160.729004
v 56.450085 131.975113 -150.456131
v 56.450085 131.975128 -171.001907
v 42.995056 -106.933289 -171.001968
v 79.847664 -69.422859 -171.001968
v 79.847664 -69.422890 -92.945755
v 56.450085 -126.933281 -171.001968
v 79.847664 -69.422859 -171.001968
v 56.450085 -126.933296 -150.456177
v 44.744385 -137.206177 -160.729065
v 56.450085 -126.933281 -171.001968
v 56.450085 -126.933296 -150.456177
v 64.499908 -54.075115 -171.001968
v 137.358078 -46.025303 -150.456161
v 79.847664 -69.422859 -171.001968
v 137.358078 -46.025299 -171.001953
v 79.847664 -69.422890 -92.945755
v 117.358086 -32.570267 -171.001938
v 147.630951 -34.319595 -160.729050
v 137.358078 -46.025303 -150.456161
v 137.358078 -46.025299 -171.001953
v 7.903877 40.106163 -121.001923
v -27.187305 111.975136 -171.001907
v 42.995056 111.975136 -171.001907
v 7.903877 40.106163 -121.001923
v -48.692158 59.116947 -171.001907
v -27.187305 111.975136 -171.001907
v 7.903877 40.106163 -121.001923
v 42.995056 111.975136 -171.001907
v 64.499908 59.116947 -171.001907
v 45.489140 2.520900 -121.001945
v 64.499908 59.116947 -171.001907
v 117.358086 37.612095 -171.001938
v 18.773064 13.390087 -121.001945
v 18.773064 13.390087 -121.001945
v 45.489140 2.520900 -121.001945
v 117.358086 37.612095 -171.001938
v 117.358086 -32.570267 -171.001938
v 45.489140 2.520900 -121.001945
v 117.358086 -32.570267 -171.001938
v 64.499908 -54.075115 -171.001968
v 7.903877 -35.064369 -121.001953
v 64.499908 -54.075115 -171.001968
v 42.995056 -106.933289 -171.001968
v 18.773064 -8.348288 -121.001945
v 18.773064 -8.348288 -121.001945
v 7.903877 -35.064369 -121.001953
v 42.995056 -106.933289 -171.001968
v -27.187305 -106.933289 -171.001968
v 7.903877 -35.064369 -121.001953
v -27.187305 -106.933289 -171.001968
v -48.692158 -54.075115 -171.001968
v -29.681387 2.520900 -121.001945
v -48.692158 -54.075115 -171.001968
v -101.550331 -32.570267 -171.001938
v -2.965311 -8.348288 -121.001945
v -2.965311 -8.348288 -121.001945
v -29.681387 2.520900 -121.001945
v -101.550331 -32.570267 -171.001938
v -101.550331 37.612095 -171.001938
v -29.681387 2.520900 -121.001945
v -101.550331 37.612095 -171.001938
v -48.692158 59.116947 -171.001907
v -2.965311 13.390087 -121.001945
v -2.965311 13.390087 -121.001945
v 56.450085 -126.933296 -150.456177
v 56.450085 -147.479065 -150.456223
v 44.744385 -137.206177 -160.729065
v 79.847664 -147.479080 -92.945793
v 56.450085 -147.479065 -150.456223
v 56.450085 -126.933296 -150.456177
v 79.847664 -147.479080 -92.945793
v 79.847664 -69.422890 -92.945755
v 137.358078 -147.479080 -69.548210
v 79.847664 -147.479080 -92.945793
v 79.847664 -69.422890 -92.945755
v 64.499908 -147.479080 -77.598038
v 137.358078 -147.479080 -69.548210
v 157.903839 -46.025303 -150.456161
v 79.847664 -69.422890 -92.945755
v 137.358078 -46.025303 -150.456161
v 157.903839 -69.422890 -92.945755
v 137.358078 -126.933311 -69.548210
v 79.847664 -69.422890 -92.945755
v 157.903839 -69.422890 -92.945755
v 137.358078 -126.933311 -69.548210
v 147.630951 -34.319595 -160.729050
v 157.903839 -46.025303 -150.456161
v 137.358078 -46.025303 -150.456161
v 157.903839 -54.075157 -77.598000
v 157.903839 -69.422890 -92.945755
v 157.903839 -126.933311 -69.548210
v 157.903839 -106.933334 -56.093178
v 157.903839 -126.933311 -69.548210
v 147.630951 -137.206207 -57.842510
v 137.358078 -126.933311 -69.548210
v 157.903839 -126.933311 -69.548210
v 147.630951 -137.206207 -57.842510
v 137.358078 -147.479080 -69.548210
v 137.358078 -126.933311 -69.548210
v 157.903839 -126.933357 27.544210
v 147.630951 -137.206207 -57.842510
v 157.903839 -126.933311 -69.548210
v 157.903839 -126.933357 27.544210
v 117.358086 -147.479095 -56.093182
v 137.358078 -147.479126 27.544207
v 147.630951 -137.206223 15.838511
v 137.358078 -147.479126 27.544207
v 137.358078 -147.479080 -69.548210
v 42.995056 -147.479141 88.452217
v 79.847664 -147.479141 50.941776
v 79.847664 -69.422935 50.941803
v 56.450085 -147.479141 108.452209
v 79.847664 -147.479141 50.941776
v 56.450085 -126.933365 108.452209
v 44.744385 -137.206268 118.725098
v 56.450085 -147.479141 108.452209
v 56.450085 -126.933365 108.452209
v 64.499908 -147.479126 35.594028
v 137.358078 -126.933357 27.544210
v 79.847664 -147.479141 50.941776
v 137.358078 -147.479126 27.544207
v 79.847664 -69.422935 50.941803
v 117.358086 -147.479111 14.089174
v 147.630951 -137.206223 15.838511
v 137.358078 -126.933357 27.544210
v 137.358078 -147.479126 27.544207
v 7.903877 -97.479126 16.583279
v 42.995056 -147.479141 88.452217
v -27.187305 -147.479141 88.452217
v 7.903877 -97.479126 16.583279
v 64.499908 -147.479126 35.594028
v 42.995056 -147.479141 88.452217
v 7.903877 -97.479126 16.583279
v -27.187305 -147.479141 88.452217
v -48.692158 -147.479126 35.594028
v -29.681387 -97.479126 -21.001989
v -48.692158 -147.479126 35.594028
v -101.550331 -147.479111 14.089174
v -2.965311 -97.479126 -10.132803
v -2.965311 -97.479126 -10.132803
v -29.681387 -97.479126 -21.001989
v -101.550331 -147.479111 14.089174
v -101.550331 -147.479095 -56.093182
v -29.681387 -97.479126 -21.001989
v -101.550331 -147.479095 -56.093182
v -48.692158 -147.479080 -77.598038
v 7.903877 -97.479103 -58.587254
v -48.692158 -147.479080 -77.598038
v -27.187305 -147.479080 -130.456223
v -2.965311 -97.479118 -31.871170
v -2.965311 -97.479118 -31.871170
v 7.903877 -97.479103 -58.587254
v -27.187305 -147.479080 -130.456223
v 42.995056 -147.479080 -130.456223
v 7.903877 -97.479103 -58.587254
v 42.995056 -147.479080 -130.456223
v 64.499908 -147.479080 -77.598038
v 45.489140 -97.479126 -21.001989
v 64.499908 -147.479080 -77.598038
v 117.358086 -147.479095 -56.093182
v 18.773064 -97.479118 -31.871170
v 18.773064 -97.479118 -31.871170
v 45.489140 -97.479126 -21.001989
v 117.358086 -147.479095 -56.093182
v 117.358086 -147.479111 14.089174
v 45.489140 -97.479126 -21.001989
v 117.358086 -147.479111 14.089174
v 64.499908 -147.479126 35.594028
v 18.773064 -97.479126 -10.132803
v 18.773064 -97.479126 -10.132803
v 56.450085 -126.933365 108.452209
v 56.450085 -126.933395 128.998001
v 44.744385 -137.206268 118.725098
v 79.847664 -69.422966 128.998001
v 56.450085 -126.933365 108.452209
v 79.847664 -69.422966 128.998001
v 56.450085 -126.933395 128.998001
v 64.499908 -54.075214 128.998001
v 79.847664 -69.422935 50.941803
v 137.358078 -46.025394 128.998016
v 79.847664 -69.422966 128.998001
v 137.358078 -46.025391 108.452225
v 147.630951 -34.319691 118.725113
v 137.358078 -46.025394 128.998016
v 137.358078 -46.025391 108.452225
v 79.847664 -69.422935 50.941803
v 7.903877 40.106098 78.998039
v 42.995056 111.975037 128.998047
v -27.187305 111.975037 128.998047
v 7.903877 40.106098 78.998039
v 64.499908 59.116848 128.998047
v 42.995056 111.975037 128.998047
v 7.903877 40.106098 78.998039
v -27.187305 111.975037 128.998047
v -48.692158 59.116848 128.998047
v -29.681387 2.520834 78.998032
v -48.692158 59.116848 128.998047
v -101.550331 37.612000 128.998016
v -2.965311 13.390022 78.998032
v -2.965311 13.390022 78.998032
v -29.681387 2.520834 78.998032
v -101.550331 37.612000 128.998016
v -101.550331 -32.570366 128.998016
v -29.681387 2.520834 78.998032
v -101.550331 -32.570366 128.998016
v -48.692158 -54.075214 128.998001
v 7.903877 -35.064426 78.998024
v -48.692158 -54.075214 128.998001
v -27.187305 -106.933388 128.998001
v -2.965311 -8.348351 78.998032
v -2.965311 -8.348351 78.998032
v 7.903877 -35.064426 78.998024
v -27.187305 -106.933388 128.998001
v 42.995056 -106.933388 128.998001
v 7.903877 -35.064426 78.998024
v 42.995056 -106.933388 128.998001
v 64.499908 -54.075214 128.998001
v 45.489140 2.520834 78.998032
v 64.499908 -54.075214 128.998001
v 117.358086 -32.570366 128.998016
v 18.773064 -8.348351 78.998032
v 18.773064 -8.348351 78.998032
v 45.489140 2.520834 78.998032
v 117.358086 -32.570366 128.998016
v 117.358086 37.612000 128.998016
v 45.489140 2.520834 78.998032
v 117.358086 37.612000 128.998016
v 64.499908 59.116848 128.998047
v 18.773064 13.390022 78.998032
v 18.773064 13.390022 78.998032
v 157.903839 -126.933357 27.544210
v 79.847664 -69.422935 50.941803
v 137.358078 -126.933357 27.544210
v 157.903839 -69.422935 50.941803
v 137.358078 -46.025391 108.452225
v 79.847664 -69.422935 50.941803
v 157.903839 -69.422935 50.941803
v 147.630951 -137.206223 15.838511
v 157.903839 -126.933357 27.544210
v 137.358078 -126.933357 27.544210
v 157.903839 -106.933350 14.089193
v 157.903839 -69.422935 50.941803
v 157.903839 -46.025391 108.452225
v 157.903839 -54.075188 35.594070
v 147.630951 -34.319691 118.725113
v 137.358078 -46.025391 108.452225
v 157.903839 -46.025391 108.452225
v 157.903839 -32.570354 88.452240
v 107.903870 -35.064400 -21.001968
v 157.903839 -106.933350 14.089193
v 157.903839 -106.933334 -56.093178
v 107.903870 -35.064400 -21.001968
v 157.903839 -54.075188 35.594070
v 157.903839 -106.933350 14.089193
v 107.903870 -35.064400 -21.001968
v 157.903839 -106.933334 -56.093178
v 157.903839 -54.075157 -77.598000
v 107.903870 2.520878 -58.587223
v 157.903839 -54.075157 -77.598000
v 157.903839 -32.570278 -130.456177
v 107.903870 -8.348317 -31.871145
v 107.903870 -8.348317 -31.871145
v 107.903870 2.520878 -58.587223
v 157.903839 -32.570278 -130.456177
v 157.903839 37.612083 -130.456161
v 107.903870 2.520878 -58.587223
v 157.903839 37.612083 -130.456161
v 157.903839 59.116909 -77.597977
v 107.903870 40.106133 -21.001944
v 157.903839 59.116909 -77.597977
v 157.903839 111.975105 -56.093102
v 107.903870 13.390057 -31.871141
v 107.903870 13.390057 -31.871141
v 107.903870 40.106133 -21.001944
v 157.903839 111.975105 -56.093102
v 157.903839 111.975067 14.089266
v 107.903870 40.106133 -21.001944
v 157.903839 111.975067 14.089266
v 157.903839 59.116879 35.594090
v 107.903870 2.520854 16.583307
v 157.903839 59.116879 35.594090
v 157.903839 37.612011 88.452286
v 107.903870 13.390051 -10.132767
v 107.903870 13.390051 -10.132767
v 107.903870 2.520854 16.583307
v 157.903839 37.612011 88.452286
v 157.903839 -32.570354 88.452240
v 107.903870 2.520854 16.583307
v 157.903839 -32.570354 88.452240
v 157.903839 -54.075188 35.594070
v 107.903870 -8.348324 -10.132770
v 107.903870 -8.348324 -10.132770
v 107.903870 13.390051 -10.132767
v 107.903870 -8.348324 -10.132770
v 107.903870 -35.064400 -21.001968
v 107.903870 2.520854 16.583307
v 107.903870 40.106133 -21.001944
v 107.903870 -8.348317 -31.871145
v 107.903870 13.390057 -31.871141
v 107.903870 2.520878 -58.587223
v 18.773064 -8.348351 78.998032
v 18.773064 13.390022 78.998032
v 7.903877 40.106098 78.998039
v 45.489140 2.520834 78.998032
v 7.903877 -35.064426 78.998024
v -2.965311 13.390022 78.998032
v -2.965311 -8.348351 78.998032
v -29.681387 2.520834 78.998032
v 18.773064 -97.479118 -31.871170
v 18.773064 -97.479126 -10.132803
v 7.903877 -97.479126 16.583279
v 45.489140 -97.479126 -21.001989
v 7.903877 -97.479103 -58.587254
v -2.965311 -97.479126 -10.132803
v -2.965311 -97.479118 -31.871170
v -29.681387 -97.479126 -21.001989
v -2.965311 -8.348288 -121.001945
v -2.965311 13.390087 -121.001945
v 7.903877 40.106163 -121.001923
v -29.681387 2.520900 -121.001945
v 7.903877 -35.064369 -121.001953
v 18.773064 13.390087 -121.001945
v 18.773064 -8.348288 -121.001945
v 45.489140 2.520900 -121.001945
v 18.773064 102.520859 -10.132739
v 18.773064 102.520866 -31.871113
v 7.903877 102.520874 -58.587189
v 45.489140 102.520859 -21.001919
v 7.903877 102.520844 16.583336
v -2.965311 102.520866 -31.871113
v -2.965311 102.520859 -10.132739
v -29.681387 102.520859 -21.001919
v -92.096115 13.390057 -31.871141
v -92.096115 -8.348317 -31.871145
v -92.096115 -35.064400 -21.001968
v -92.096115 2.520878 -58.587223
v -92.096115 40.106133 -21.001944
v -92.096115 -8.348324 -10.132770
v -92.096115 13.390051 -10.132767
v -92.096115 2.520854 16.583307
vt 0.2904 0.0348
vt 0.2722 0.1109
vt 0.2722 0.0225
vt 0.4920 0.5538
vt 0.5052 0.5432
vt 0.5052 0.6316
vt 0.3246 0.0012
vt 0.8256 0.6151
vt 0.8821 0.6338
vt 0.8256 0.6338
vt 0.3757 0.5804
vt 0.3851 0.5946
vt 0.3664 0.5946
vt 0.2904 0.0987
vt 0.3246 0.1322
vt 0.2830 0.9083
vt 0.2119 0.9648
vt 0.2119 0.9083
vt 0.2306 0.9648
vt 0.6165 0.2577
vt 0.6165 0.2408
vt 0.6322 0.2511
vt 0.4920 0.6209
vt 0.2517 0.3386
vt 0.2444 0.2722
vt 0.2657 0.3246
vt 0.0012 0.8600
vt 0.0577 0.8787
vt 0.0012 0.8787
vt 0.3386 0.1183
vt 0.0577 0.8076
vt 0.1682 0.2904
vt 0.1559 0.2722
vt 0.7910 0.1090
vt 0.8016 0.1223
vt 0.7132 0.1223
vt 0.2321 0.2904
vt 0.6141 0.2549
vt 0.5954 0.2549
vt 0.6048 0.2408
vt 0.1486 0.3386
vt 0.1346 0.3246
vt 0.9163 0.8905
vt 0.8452 0.9471
vt 0.8452 0.8905
vt 0.8639 0.9471
vt 0.6559 0.4546
vt 0.6559 0.4376
vt 0.6715 0.4479
vt 0.7239 0.1090
vt 0.0493 0.4343
vt 0.0676 0.4466
vt 0.0152 0.4679
vt 0.6309 0.8452
vt 0.6122 0.9017
vt 0.6122 0.8452
vt 0.0012 0.4539
vt 0.6833 0.9017
vt 0.0676 0.3582
vt 0.5038 0.7353
vt 0.4905 0.7460
vt 0.4905 0.6575
vt 0.3851 0.5780
vt 0.3664 0.5780
vt 0.3757 0.5638
vt 0.0493 0.3704
vt 0.0152 0.3369
vt 0.1902 0.9252
vt 0.1191 0.9817
vt 0.1191 0.9252
vt 0.1378 0.9817
vt 0.6346 0.2577
vt 0.6346 0.2408
vt 0.6502 0.2511
vt 0.5038 0.6682
vt 0.2821 0.1346
vt 0.2894 0.2010
vt 0.2681 0.1486
vt 0.7192 0.8148
vt 0.7005 0.8713
vt 0.7005 0.8148
vt 0.0012 0.3508
vt 0.7716 0.8713
vt 0.3656 0.1828
vt 0.3778 0.2010
vt 0.7578 0.5395
vt 0.7472 0.5263
vt 0.8356 0.5263
vt 0.3016 0.1828
vt 0.1219 0.4585
vt 0.1032 0.4585
vt 0.1125 0.4443
vt 0.3851 0.1346
vt 0.3991 0.1486
vt 0.4726 0.8662
vt 0.4015 0.9227
vt 0.4015 0.8662
vt 0.4202 0.9227
vt 0.3804 0.7262
vt 0.3804 0.7092
vt 0.3960 0.7195
vt 0.8249 0.5395
vt 0.3386 0.0152
vt 0.8821 0.5627
vt 0.6981 0.6882
vt 0.6122 0.6882
vt 0.6360 0.6289
vt 0.6038 0.1043
vt 0.5374 0.1293
vt 0.5215 0.0798
vt 0.0498 0.6144
vt 0.0012 0.5435
vt 0.0532 0.5435
vt 0.6367 0.7604
vt 0.6617 0.8268
vt 0.6122 0.8428
vt 0.0760 0.6144
vt 0.6617 0.7524
vt 0.1293 0.0700
vt 0.1293 0.1559
vt 0.0700 0.1321
vt 0.5411 0.1609
vt 0.4703 0.2095
vt 0.4703 0.1575
vt 0.7971 0.4233
vt 0.7721 0.3569
vt 0.8216 0.3410
vt 0.7721 0.4314
vt 0.5411 0.1346
vt 0.3410 0.1293
vt 0.4031 0.0700
vt 0.4269 0.1293
vt 0.5350 0.3123
vt 0.6058 0.2637
vt 0.6058 0.3157
vt 0.3715 0.8202
vt 0.3051 0.8452
vt 0.2891 0.7958
vt 0.3796 0.8452
vt 0.5350 0.3386
vt 0.7697 0.3729
vt 0.6900 0.4049
vt 0.6900 0.3410
vt 0.4501 0.6140
vt 0.4015 0.5432
vt 0.4535 0.5432
vt 0.6119 0.1293
vt 0.4764 0.6140
vt 0.7716 0.9326
vt 0.7005 0.9892
vt 0.7529 0.9326
vt 0.7716 0.9892
vt 0.9074 0.2629
vt 0.8509 0.3152
vt 0.8509 0.2441
vt 0.8400 0.4744
vt 0.8965 0.5455
vt 0.8400 0.4931
vt 0.8965 0.4744
vt 0.4202 0.8072
vt 0.4726 0.8638
vt 0.4015 0.8638
vt 0.0793 0.4443
vt 0.0887 0.4585
vt 0.0700 0.4585
vt 0.0012 0.2174
vt 0.0152 0.2034
vt 0.0676 0.2248
vt 0.9074 0.2441
vt 0.4351 0.5225
vt 0.4228 0.5408
vt 0.4015 0.4884
vt 0.4155 0.4744
vt 0.4788 0.6316
vt 0.4788 0.5432
vt 0.0494 0.2370
vt 0.0676 0.3132
vt 0.3804 0.6874
vt 0.3804 0.6704
vt 0.3960 0.6807
vt 0.5000 0.7858
vt 0.5170 0.7858
vt 0.5067 0.8014
vt 0.5112 0.5408
vt 0.6670 0.2330
vt 0.6564 0.2198
vt 0.7448 0.2198
vt 0.3745 0.0194
vt 0.3410 0.0536
vt 0.3623 0.0012
vt 0.4015 0.8072
vt 0.2517 0.2010
vt 0.2444 0.1347
vt 0.2657 0.1871
vt 0.3549 0.0676
vt 0.7341 0.2330
vt 0.7448 0.2463
vt 0.6564 0.2463
vt 0.4384 0.0194
vt 0.4507 0.0012
vt 0.4845 0.2501
vt 0.4703 0.2595
vt 0.4703 0.2408
vt 0.7472 0.5527
vt 0.8356 0.5527
vt 0.1682 0.1529
vt 0.1560 0.1346
vt 0.2321 0.1529
vt 0.1174 0.4419
vt 0.1032 0.4325
vt 0.1174 0.4232
vt 0.9664 0.3152
vt 0.9098 0.2629
vt 0.9098 0.2441
vt 0.9664 0.2441
vt 0.1486 0.2010
vt 0.1346 0.1870
vt 0.9166 0.1534
vt 0.8600 0.2057
vt 0.8600 0.1346
vt 0.9277 0.0577
vt 0.9988 0.0012
vt 0.9464 0.0577
vt 0.9277 0.0012
vt 0.3079 0.8476
vt 0.3602 0.9042
vt 0.2891 0.9042
vt 0.9166 0.1346
vt 0.3016 0.5266
vt 0.2894 0.5448
vt 0.2681 0.4925
vt 0.2821 0.4785
vt 0.4958 0.6496
vt 0.4788 0.6496
vt 0.4891 0.6340
vt 0.0997 0.7905
vt 0.0997 0.7735
vt 0.1153 0.7838
vt 0.3778 0.5448
vt 0.8363 0.6494
vt 0.8256 0.6362
vt 0.9140 0.6362
vt 0.3016 0.2904
vt 0.2681 0.3246
vt 0.2894 0.2722
vt 0.2891 0.8476
vt 0.4679 0.3549
vt 0.4015 0.3623
vt 0.4539 0.3410
vt 0.2821 0.3386
vt 0.9034 0.6494
vt 0.8256 0.6627
vt 0.9140 0.6627
vt 0.3656 0.2904
vt 0.3778 0.2722
vt 0.5294 0.2408
vt 0.5387 0.2549
vt 0.5200 0.2549
vt 0.5170 0.7460
vt 0.5170 0.6575
vt 0.4197 0.4384
vt 0.4015 0.4507
vt 0.4197 0.3745
vt 0.5170 0.7587
vt 0.5014 0.7653
vt 0.5014 0.7484
vt 0.9607 0.7412
vt 0.9041 0.6888
vt 0.9041 0.6701
vt 0.9607 0.6701
vt 0.4679 0.4580
vt 0.4539 0.4720
vt 0.7862 0.9081
vt 0.8428 0.8557
vt 0.8428 0.9268
vt 0.9755 0.2057
vt 0.9190 0.1346
vt 0.9755 0.1870
vt 0.9190 0.2057
vt 0.8846 0.6151
vt 0.9411 0.5627
vt 0.9411 0.6338
vt 0.7862 0.9268
vt 0.1682 0.4579
vt 0.1559 0.4761
vt 0.1346 0.4237
vt 0.1486 0.4097
vt 0.5505 0.2408
vt 0.5599 0.2549
vt 0.5411 0.2549
vt 0.1167 0.7711
vt 0.0997 0.7711
vt 0.1100 0.7554
vt 0.2444 0.4761
vt 0.0119 0.9678
vt 0.0012 0.9546
vt 0.0896 0.9546
vt 0.3016 0.2216
vt 0.2681 0.2558
vt 0.2894 0.2034
vt 0.8846 0.6338
vt 0.1486 0.3410
vt 0.1559 0.4073
vt 0.1346 0.3549
vt 0.2821 0.2698
vt 0.0790 0.9678
vt 0.0896 0.9811
vt 0.0012 0.9811
vt 0.3656 0.2216
vt 0.3778 0.2034
vt 0.4869 0.2501
vt 0.5010 0.2408
vt 0.5010 0.2595
vt 0.8016 0.0958
vt 0.7132 0.0958
vt 0.2321 0.3891
vt 0.2444 0.4073
vt 0.1682 0.3891
vt 0.0700 0.4232
vt 0.0842 0.4325
vt 0.0700 0.4419
vt 0.8240 0.3410
vt 0.8805 0.3933
vt 0.8805 0.4121
vt 0.8240 0.4121
vt 0.2517 0.3410
vt 0.2657 0.3549
vt 0.0012 0.9335
vt 0.0577 0.8811
vt 0.0577 0.9522
vt 0.4726 0.9251
vt 0.4015 0.9817
vt 0.4539 0.9251
vt 0.4726 0.9817
vt 0.7529 0.9302
vt 0.7005 0.8737
vt 0.7716 0.8737
vt 0.0012 0.9522
vt 0.1682 0.2516
vt 0.1559 0.2698
vt 0.1346 0.2174
vt 0.1486 0.2034
vt 0.7902 0.4338
vt 0.8071 0.4338
vt 0.7968 0.4494
vt 0.3757 0.5472
vt 0.3851 0.5614
vt 0.3664 0.5614
vt 0.2444 0.2698
vt 0.8707 0.2214
vt 0.8600 0.2081
vt 0.9484 0.2081
vt 0.3016 0.3592
vt 0.2681 0.3933
vt 0.2894 0.3410
vt 0.7716 0.9302
vt 0.0012 0.3205
vt 0.0152 0.3345
vt 0.2821 0.4073
vt 0.3656 0.3592
vt 0.3778 0.3410
vt 0.9378 0.2214
vt 0.9484 0.2346
vt 0.8600 0.2346
vt 0.3804 0.6680
vt 0.3804 0.6510
vt 0.3960 0.6613
vt 0.0493 0.3009
vt 0.3991 0.3933
vt 0.1714 0.8638
vt 0.1902 0.8073
vt 0.1902 0.8638
vt 0.7668 0.7086
vt 0.7668 0.6917
vt 0.7824 0.7020
vt 0.4990 0.5225
vt 0.5326 0.4884
vt 0.6122 0.9607
vt 0.6833 0.9041
vt 0.6833 0.9607
vt 0.6646 0.9041
vt 0.3976 0.7439
vt 0.3976 0.7609
vt 0.3820 0.7506
vt 0.4679 0.1486
vt 0.4015 0.1559
vt 0.4539 0.1346
vt 0.0785 0.5474
vt 0.1306 0.5186
vt 0.0922 0.5601
vt 0.5186 0.4744
vt 0.0785 0.4703
vt 0.4197 0.2321
vt 0.4015 0.2444
vt 0.6773 0.7630
vt 0.6905 0.7524
vt 0.6905 0.8408
vt 0.4197 0.1682
vt 0.7902 0.4518
vt 0.8058 0.4621
vt 0.7902 0.4688
vt 0.4679 0.2517
vt 0.4539 0.2657
vt 0.2891 0.9631
vt 0.3602 0.9066
vt 0.3602 0.9631
vt 0.3415 0.9066
vt 0.5170 0.5597
vt 0.5263 0.5739
vt 0.5076 0.5739
vt 0.6773 0.8301
vt 0.3851 0.4073
vt 0.1191 0.8073
vt 0.6855 0.5603
vt 0.6855 0.4744
vt 0.7448 0.4982
vt 0.8419 0.0835
vt 0.8169 0.0172
vt 0.8664 0.0012
vt 0.0012 0.6654
vt 0.0720 0.6168
vt 0.0720 0.6688
vt 0.8178 0.7710
vt 0.8428 0.8373
vt 0.7933 0.8533
vt 0.0012 0.6916
vt 0.8428 0.7629
vt 0.6098 0.6866
vt 0.5477 0.7460
vt 0.5239 0.6866
vt 0.6876 0.3672
vt 0.6168 0.4158
vt 0.6168 0.3638
vt 0.7553 0.4994
vt 0.8216 0.4744
vt 0.8376 0.5239
vt 0.7472 0.4744
vt 0.6876 0.3410
vt 0.0700 0.2466
vt 0.1293 0.3087
vt 0.0700 0.3325
vt 0.6345 0.2637
vt 0.6830 0.3346
vt 0.6311 0.3346
vt 0.7086 0.7360
vt 0.7750 0.7110
vt 0.7909 0.7605
vt 0.7005 0.7110
vt 0.6082 0.2637
vt 0.4015 0.6937
vt 0.4874 0.6937
vt 0.4636 0.7530
vt 0.5612 0.5517
vt 0.6098 0.6225
vt 0.5578 0.6225
vt 0.8169 0.0916
vt 0.5350 0.5517
vt 0.9555 0.5455
vt 0.8989 0.4744
vt 0.9555 0.5268
vt 0.7838 0.6712
vt 0.7668 0.6712
vt 0.7771 0.6556
vt 0.8989 0.5455
vt 0.8688 0.0536
vt 0.9253 0.0012
vt 0.9253 0.0723
vt 0.2830 0.8493
vt 0.2119 0.9059
vt 0.2643 0.8493
vt 0.2830 0.9059
vt 0.9498 0.4710
vt 0.8975 0.4145
vt 0.9686 0.4145
vt 0.2321 0.2516
vt 0.2657 0.2174
vt 0.8688 0.0723
vt 0.2517 0.5448
vt 0.2444 0.4785
vt 0.2657 0.5308
vt 0.2517 0.2035
vt 0.0866 0.4325
vt 0.1008 0.4232
vt 0.1008 0.4419
vt 0.3898 0.6164
vt 0.3991 0.6306
vt 0.3804 0.6306
vt 0.1682 0.4967
vt 0.1559 0.4785
vt 0.6389 0.2251
vt 0.6495 0.2384
vt 0.5611 0.2384
vt 0.2321 0.4967
vt 0.1183 0.0012
vt 0.1322 0.0152
vt 0.1109 0.0676
vt 0.9686 0.4710
vt 0.1828 0.0987
vt 0.2010 0.1109
vt 0.1486 0.1322
vt 0.1346 0.1183
vt 0.5718 0.2251
vt 0.5611 0.2119
vt 0.6495 0.2119
vt 0.0987 0.0494
vt 0.0225 0.0676
vt 0.4982 0.6510
vt 0.4982 0.6340
vt 0.5138 0.6443
vt 0.6641 0.7524
vt 0.6641 0.8408
vt 0.2010 0.0225
vt 0.5076 0.5905
vt 0.5170 0.5763
vt 0.5263 0.5905
vt 0.8452 0.8171
vt 0.9017 0.8694
vt 0.9017 0.8881
vt 0.8452 0.8881
vt 0.1828 0.0348
vt 0.1487 0.0012
vt 0.0785 0.6396
vt 0.0785 0.5625
vt 0.1306 0.6108
vt 0.8452 0.6701
vt 0.9017 0.7412
vt 0.8452 0.6888
vt 0.9017 0.6701
vt 0.9017 0.7623
vt 0.8452 0.8147
vt 0.8452 0.7436
vt 0.0922 0.6523
vt 0.3851 0.4761
vt 0.3778 0.4097
vt 0.3991 0.4621
vt 0.1347 0.0152
vt 0.3804 0.7068
vt 0.3804 0.6898
vt 0.3960 0.7001
vt 0.5788 0.2501
vt 0.5930 0.2408
vt 0.5930 0.2595
vt 0.3016 0.4279
vt 0.2894 0.4097
vt 0.5480 0.2251
vt 0.5587 0.2384
vt 0.4703 0.2384
vt 0.3656 0.4279
vt 0.5186 0.2722
vt 0.5326 0.2862
vt 0.5112 0.3386
vt 0.9017 0.7436
vt 0.4720 0.0536
vt 0.4580 0.0676
vt 0.4990 0.3204
vt 0.4228 0.3386
vt 0.4809 0.2251
vt 0.4703 0.2119
vt 0.5587 0.2119
vt 0.7838 0.6892
vt 0.7668 0.6892
vt 0.7771 0.6736
vt 0.3656 0.5266
vt 0.3991 0.4925
vt 0.9752 0.9616
vt 0.9187 0.8905
vt 0.9752 0.8905
vt 0.3871 0.6486
vt 0.3804 0.6330
vt 0.3974 0.6330
vt 0.9187 0.9093
vt 0.4155 0.2722
vt 0.4015 0.2862
vt 0.5063 0.1293
vt 0.4776 0.0771
vt 0.5191 0.1156
vt 0.3851 0.4785
vt 0.4293 0.1293
vt 0.4351 0.3204
vt 0.5176 0.2501
vt 0.5034 0.2595
vt 0.5034 0.2408
vt 0.7220 0.2144
vt 0.6900 0.1346
vt 0.7539 0.1346
vt 0.7813 0.2170
vt 0.7563 0.1506
vt 0.8058 0.1346
vt 0.5517 0.0498
vt 0.6225 0.0012
vt 0.6225 0.0532
vt 0.7987 0.6450
vt 0.7738 0.5787
vt 0.8232 0.5627
vt 0.5517 0.0760
vt 0.7738 0.6531
vt 0.1236 0.7530
vt 0.1857 0.6937
vt 0.2095 0.7530
vt 0.5350 0.5230
vt 0.6058 0.4744
vt 0.6058 0.5264
vt 0.5526 0.4427
vt 0.4862 0.4677
vt 0.4703 0.4182
vt 0.5607 0.4677
vt 0.5350 0.5493
vt 0.3750 0.6798
vt 0.2891 0.6798
vt 0.3129 0.6205
vt 0.2605 0.6181
vt 0.2119 0.5472
vt 0.2639 0.5472
vt 0.6017 0.7728
vt 0.5354 0.7978
vt 0.5194 0.7484
vt 0.6098 0.7978
vt 0.2867 0.6181
vt 0.3750 0.7415
vt 0.2891 0.7415
vt 0.3129 0.6822
vt 0.5230 0.0720
vt 0.4744 0.0012
vt 0.5264 0.0012
vt 0.7563 0.2251
vt 0.5493 0.0720
vt 0.2865 0.7928
vt 0.2708 0.7825
vt 0.2865 0.7758
vt 0.8240 0.4710
vt 0.8240 0.4145
vt 0.8427 0.4145
vt 0.3991 0.3246
vt 0.8951 0.4710
vt 0.1191 0.9228
vt 0.1191 0.8662
vt 0.1902 0.8662
vt 0.2035 0.0152
vt 0.2174 0.0012
vt 0.2698 0.0225
vt 0.3851 0.3386
vt 0.5905 0.9181
vt 0.5194 0.9746
vt 0.5718 0.9181
vt 0.5905 0.9746
vt 0.9607 0.8358
vt 0.9041 0.8881
vt 0.9041 0.8171
vt 0.1378 0.9228
vt 0.5170 0.5432
vt 0.5263 0.5573
vt 0.5076 0.5573
vt 0.2821 0.4761
vt 0.2681 0.4621
vt 0.9607 0.8171
vt 0.0194 0.1035
vt 0.0012 0.0913
vt 0.0536 0.0700
vt 0.0676 0.0840
vt 0.6559 0.4352
vt 0.6559 0.4182
vt 0.6715 0.4285
vt 0.7721 0.4508
vt 0.7721 0.4338
vt 0.7878 0.4441
vt 0.0012 0.1797
vt 0.1034 0.6753
vt 0.1167 0.6646
vt 0.1167 0.7530
vt 0.2516 0.0348
vt 0.2698 0.1109
vt 0.1034 0.7424
vt 0.0902 0.7530
vt 0.0902 0.6646
vt 0.2321 0.4579
vt 0.2657 0.4237
vt 0.5905 0.8592
vt 0.5194 0.9157
vt 0.5194 0.8592
vt 0.3976 0.7736
vt 0.3820 0.7803
vt 0.3820 0.7633
vt 0.5381 0.9157
vt 0.2034 0.1183
vt 0.2174 0.1322
vt 0.8829 0.3933
vt 0.9395 0.4121
vt 0.8829 0.4121
vt 0.2517 0.4097
vt 0.9395 0.3410
vt 0.2516 0.0987
vt 0.5170 0.5929
vt 0.5263 0.6071
vt 0.5076 0.6071
vt 0.1293 0.3349
vt 0.1293 0.4208
vt 0.0700 0.3970
vt 0.7377 0.0093
vt 0.7627 0.0756
vt 0.7132 0.0916
vt 0.6144 0.1609
vt 0.5435 0.2095
vt 0.5435 0.1575
vt 0.3715 0.7684
vt 0.3051 0.7934
vt 0.2891 0.7439
vt 0.6144 0.1346
vt 0.3796 0.7934
vt 0.7713 0.6220
vt 0.6855 0.6220
vt 0.7092 0.5627
vt 0.1832 0.6181
vt 0.1346 0.5472
vt 0.1866 0.5472
vt 0.4839 0.7798
vt 0.4175 0.8048
vt 0.4015 0.7554
vt 0.4919 0.8048
vt 0.2095 0.6181
vt 0.7448 0.3346
vt 0.6855 0.2724
vt 0.7448 0.2487
vt 0.2605 0.6913
vt 0.2119 0.6205
vt 0.2639 0.6205
vt 0.7901 0.0835
vt 0.7651 0.0172
vt 0.8145 0.0012
vt 0.7651 0.0916
vt 0.2867 0.6913
vt 0.0012 0.7534
vt 0.0633 0.6940
vt 0.0871 0.7534
vt 0.6168 0.1832
vt 0.6876 0.1346
vt 0.6876 0.1866
vt 0.7627 0.0012
vt 0.6168 0.2095
vt 0.5170 0.7678
vt 0.5067 0.7834
vt 0.5000 0.7678
vt 0.3991 0.2558
vt 0.2119 0.8282
vt 0.2684 0.8469
vt 0.2119 0.8469
vt 0.1486 0.5448
vt 0.1346 0.5308
vt 0.9041 0.7436
vt 0.9607 0.8147
vt 0.9041 0.8147
vt 0.9607 0.7959
vt 0.5764 0.2501
vt 0.5623 0.2595
vt 0.5623 0.2408
vt 0.3851 0.2698
vt 0.2684 0.7758
vt 0.6249 0.0012
vt 0.7108 0.0012
vt 0.6870 0.0605
vt 0.0093 0.7808
vt 0.0756 0.7558
vt 0.0916 0.8052
vt 0.0275 0.4703
vt 0.0760 0.5411
vt 0.0241 0.5411
vt 0.8326 0.1427
vt 0.8576 0.2091
vt 0.8082 0.2251
vt 0.0012 0.4703
vt 0.8576 0.1346
vt 0.6098 0.6249
vt 0.5477 0.6842
vt 0.5239 0.6249
vt 0.4724 0.6427
vt 0.4015 0.6913
vt 0.4015 0.6393
vt 0.8178 0.6782
vt 0.8428 0.7445
vt 0.7933 0.7605
vt 0.8428 0.6701
vt 0.4724 0.6164
vt 0.2438 0.6937
vt 0.2758 0.7734
vt 0.2119 0.7734
vt 0.6830 0.5779
vt 0.6122 0.6265
vt 0.6122 0.5745
vt 0.5712 0.4432
vt 0.6375 0.4182
vt 0.6535 0.4677
vt 0.5631 0.4182
vt 0.6830 0.5517
vt 0.6249 0.0629
vt 0.7108 0.0629
vt 0.6870 0.1223
vt 0.1609 0.6205
vt 0.2095 0.6913
vt 0.1575 0.6913
vt 0.0012 0.7558
vt 0.1346 0.6205
vt 0.9399 0.0747
vt 0.8688 0.1312
vt 0.9211 0.0747
vt 0.9399 0.1312
vt 0.5718 0.8568
vt 0.5194 0.8002
vt 0.5905 0.8002
vt 0.3757 0.5970
vt 0.3851 0.6112
vt 0.3664 0.6112
vt 0.0194 0.1675
vt 0.0536 0.2010
vt 0.5905 0.8568
vt 0.0152 0.0012
vt 0.0012 0.0152
vt 0.0675 0.1871
vt 0.7721 0.4702
vt 0.7721 0.4532
vt 0.7878 0.4635
vt 0.0348 0.0493
vt 0.7697 0.4392
vt 0.6900 0.4712
vt 0.6900 0.4073
vt 0.8235 0.2522
vt 0.8485 0.3186
vt 0.7990 0.3346
vt 0.6144 0.3672
vt 0.5435 0.4158
vt 0.5435 0.3638
vt 0.7722 0.3265
vt 0.7472 0.2601
vt 0.7966 0.2441
vt 0.6144 0.3410
vt 0.7472 0.3346
vt 0.6122 0.7500
vt 0.6743 0.6906
vt 0.6981 0.7500
vt 0.4703 0.3896
vt 0.5411 0.3410
vt 0.5411 0.3929
vt 0.1271 0.7804
vt 0.1935 0.7554
vt 0.2095 0.8049
vt 0.1191 0.7554
vt 0.4703 0.4158
vt 0.0700 0.1583
vt 0.1293 0.2204
vt 0.0700 0.2442
vt 0.3154 0.5472
vt 0.3640 0.6181
vt 0.3120 0.6181
vt 0.7086 0.7879
vt 0.7750 0.7629
vt 0.7909 0.8124
vt 0.7005 0.7629
vt 0.2891 0.5472
vt 0.7325 0.6289
vt 0.7644 0.7086
vt 0.7005 0.7086
vt 0.6345 0.4744
vt 0.6830 0.5452
vt 0.6311 0.5452
vt 0.8485 0.2441
vt 0.6082 0.4744
vt 0.0843 0.8458
vt 0.0704 0.8318
vt 0.0601 0.8076
vt 0.0601 0.8560
vt 0.1086 0.8560
vt 0.0844 0.8178
vt 0.0983 0.8318
vt 0.1086 0.8076
vt 0.9801 0.3652
vt 0.9661 0.3792
vt 0.9419 0.3894
vt 0.9903 0.3894
vt 0.9903 0.3410
vt 0.9521 0.3652
vt 0.9661 0.3512
vt 0.9419 0.3410
vt 0.0983 0.8826
vt 0.0844 0.8966
vt 0.0601 0.9068
vt 0.1086 0.9068
vt 0.1086 0.8584
vt 0.0704 0.8826
vt 0.0844 0.8686
vt 0.0601 0.8584
vt 0.8104 0.9394
vt 0.8244 0.9534
vt 0.8346 0.9776
vt 0.8346 0.9292
vt 0.7862 0.9292
vt 0.8104 0.9674
vt 0.7964 0.9534
vt 0.7862 0.9776
vt 0.9817 0.5869
vt 0.9677 0.6009
vt 0.9435 0.6111
vt 0.9919 0.6111
vt 0.9919 0.5627
vt 0.9537 0.5869
vt 0.9677 0.5729
vt 0.9435 0.5627
vt 0.9665 0.1129
vt 0.9525 0.0989
vt 0.9423 0.0747
vt 0.9423 0.1231
vt 0.9907 0.1231
vt 0.9665 0.0849
vt 0.9805 0.0989
vt 0.9907 0.0747
vn -1.0000 0.0000 0.0000
vn -0.7071 0.7071 0.0000
vn 0.0000 0.3768 -0.9263
vn 0.0000 0.7516 -0.6596
vn 0.0000 0.3768 0.9263
vn 0.0000 0.7516 0.6596
vn 0.0000 0.9263 0.3768
vn -0.7071 -0.0000 0.7071
vn 0.0000 0.6596 0.7516
vn 0.0000 -0.9263 0.3768
vn 0.0000 -0.6596 0.7516
vn 0.0000 -0.3768 0.9263
vn -0.7071 -0.7071 -0.0000
vn 0.0000 -0.7516 0.6596
vn 0.0000 -0.3768 -0.9263
vn 0.0000 -0.7516 -0.6596
vn 0.0000 -0.9263 -0.3768
vn -0.7071 0.0000 -0.7071
vn 0.0000 -0.6596 -0.7516
vn 0.0000 0.9263 -0.3768
vn 0.0000 0.6596 -0.7516
vn -0.8209 0.5711 0.0000
vn -0.7660 0.2422 0.5954
vn -0.7660 0.2422 -0.5954
vn -0.7660 0.5954 -0.2422
vn -0.8209 0.0000 -0.5711
vn -0.7660 -0.5954 -0.2422
vn -0.7660 -0.2422 -0.5954
vn -0.8209 -0.5711 -0.0000
vn -0.7660 -0.2422 0.5954
vn -0.7660 -0.5954 0.2422
vn -0.8209 -0.0000 0.5711
vn -0.7660 0.5954 0.2422
vn -0.3768 0.0000 -0.9263
vn -0.9263 0.0000 -0.3768
vn -0.9263 0.3768 0.0000
vn -0.3768 0.9263 0.0000
vn -0.7516 0.0000 -0.6596
vn 0.0000 1.0000 0.0000
vn -0.6596 0.0000 -0.7516
vn -0.6596 0.7516 0.0000
vn 0.0000 0.7071 -0.7071
vn 0.0000 0.0000 -1.0000
vn -0.7516 0.6596 0.0000
vn -0.7516 -0.6596 0.0000
vn -0.3768 -0.9263 -0.0000
vn -0.9263 -0.3768 -0.0000
vn -0.6596 -0.7516 0.0000
vn 0.0000 -0.7071 -0.7071
vn -0.0000 -1.0000 -0.0000
vn -0.7516 0.0000 0.6596
vn -0.3768 0.0000 0.9263
vn -0.9263 -0.0000 0.3768
vn -0.6596 0.0000 0.7516
vn 0.0000 -0.7071 0.7071
vn 0.0000 0.0000 1.0000
vn 0.0000 0.7071 0.7071
vn 0.9263 0.0000 0.3768
vn 0.6596 0.0000 0.7516
vn 0.9263 0.0000 -0.3768
vn 0.6596 0.0000 -0.7516
vn 0.3768 0.0000 -0.9263
vn 0.7071 0.7071 0.0000
vn 0.7516 0.0000 -0.6596
vn 0.3768 -0.0000 0.9263
vn 0.7516 -0.0000 0.6596
vn 0.0000 0.8209 0.5711
vn -0.5954 0.7660 0.2422
vn 0.5954 0.7660 0.2422
vn 0.2422 0.7660 0.5954
vn 0.5711 0.8209 0.0000
vn 0.2422 0.7660 -0.5954
vn 0.5954 0.7660 -0.2422
vn 0.0000 0.8209 -0.5711
vn -0.5954 0.7660 -0.2422
vn -0.2422 0.7660 -0.5954
vn -0.5711 0.8209 0.0000
vn -0.2422 0.7660 0.5954
vn 0.9263 0.3768 0.0000
vn 0.6596 0.7516 0.0000
vn 0.3768 0.9263 0.0000
vn 0.7516 0.6596 0.0000
vn 0.7071 -0.0000 0.7071
vn 1.0000 0.0000 0.0000
vn 0.7071 0.0000 -0.7071
vn 0.9263 -0.3768 -0.0000
vn 0.6596 -0.7516 0.0000
vn 0.3768 -0.9263 -0.0000
vn 0.7516 -0.6596 0.0000
vn 0.0000 -0.5711 -0.8209
vn 0.5954 -0.2422 -0.7660
vn -0.5954 -0.2422 -0.7660
vn -0.2422 -0.5954 -0.7660
vn -0.5711 0.0000 -0.8209
vn -0.2422 0.5954 -0.7660
vn -0.5954 0.2422 -0.7660
vn 0.0000 0.5711 -0.8209
vn 0.5954 0.2422 -0.7660
vn 0.2422 0.5954 -0.7660
vn 0.5711 0.0000 -0.8209
vn 0.2422 -0.5954 -0.7660
vn 0.7071 -0.7071 -0.0000
vn 0.0000 -0.8209 -0.5711
vn -0.5954 -0.7660 -0.2422
vn 0.5954 -0.7660 -0.2422
vn 0.2422 -0.7660 -0.5954
vn 0.5711 -0.8209 0.0000
vn 0.2422 -0.7660 0.5954
vn 0.5954 -0.7660 0.2422
vn 0.0000 -0.8209 0.5711
vn -0.5954 -0.7660 0.2422
vn -0.2422 -0.7660 0.5954
vn -0.5711 -0.8209 0.0000
vn -0.2422 -0.7660 -0.5954
vn 0.0000 -0.5711 0.8209
vn -0.5954 -0.2422 0.7660
vn 0.5954 -0.2422 0.7660
vn 0.2422 -0.5954 0.7660
vn 0.5711 0.0000 0.8209
vn 0.2422 0.5954 0.7660
vn 0.5954 0.2422 0.7660
vn 0.0000 0.5711 0.8209
vn -0.5954 0.2422 0.7660
vn -0.2422 0.5954 0.7660
vn -0.5711 0.0000 0.8209
vn -0.2422 -0.5954 0.7660
vn 0.8209 0.5711 0.0000
vn 0.7660 0.2422 -0.5954
vn 0.7660 0.2422 0.5954
vn 0.7660 0.5954 0.2422
vn 0.8209 -0.0000 0.5711
vn 0.7660 -0.5954 0.2422
vn 0.7660 -0.2422 0.5954
vn 0.8209 -0.5711 -0.0000
vn 0.7660 -0.2422 -0.5954
vn 0.7660 -0.5954 -0.2422
vn 0.8209 0.0000 -0.5711
vn 0.7660 0.5954 -0.2422
usemtl None
s off
f 1/1/1 2/2/1 3/3/1
f 4/4/2 5/5/2 6/6/2
f 1/1/1 3/3/1 7/7/1
f 8/8/3 9/9/3 10/10/3
f 11/11/4 12/12/4 13/13/4
f 14/14/1 15/15/1 2/2/1
f 16/16/5 17/17/5 18/18/5
f 1/1/1 14/14/1 2/2/1
f 19/19/5 17/17/5 16/16/5
f 20/20/6 21/21/6 22/22/6
f 4/4/2 6/6/2 23/23/2
f 24/24/1 25/25/1 15/26/1
f 26/27/7 27/28/7 28/29/7
f 14/14/1 24/30/1 15/15/1
f 29/31/7 27/28/7 26/27/7
f 30/32/1 31/33/1 25/25/1
f 32/34/8 33/35/8 34/36/8
f 35/37/1 30/32/1 25/25/1
f 24/24/1 35/37/1 25/25/1
f 36/38/9 37/39/9 38/40/9
f 39/41/1 40/42/1 31/33/1
f 41/43/10 42/44/10 43/45/10
f 30/32/1 39/41/1 31/33/1
f 44/46/10 42/44/10 41/43/10
f 45/47/11 46/48/11 47/49/11
f 32/34/8 34/36/8 48/50/8
f 49/51/1 50/52/1 40/53/1
f 51/54/12 52/55/12 53/56/12
f 39/57/1 49/51/1 40/53/1
f 54/58/12 52/55/12 51/54/12
f 49/51/1 55/59/1 50/52/1
f 56/60/13 57/61/13 58/62/13
f 59/63/14 60/64/14 61/65/14
f 62/66/1 63/67/1 55/59/1
f 64/68/15 65/69/15 66/70/15
f 49/51/1 62/66/1 55/59/1
f 67/71/15 65/69/15 64/68/15
f 68/72/16 69/73/16 70/74/16
f 56/60/13 58/62/13 71/75/13
f 72/76/1 73/77/1 63/78/1
f 74/79/17 75/80/17 76/81/17
f 72/82/1 63/67/1 62/66/1
f 77/83/17 75/80/17 74/79/17
f 78/84/1 79/85/1 73/77/1
f 80/86/18 81/87/18 82/88/18
f 83/89/1 78/84/1 73/77/1
f 72/76/1 83/89/1 73/77/1
f 84/90/19 85/91/19 86/92/19
f 87/93/1 7/94/1 79/85/1
f 88/95/20 89/96/20 90/97/20
f 78/84/1 87/93/1 79/85/1
f 91/98/20 89/96/20 88/95/20
f 92/99/21 93/100/21 94/101/21
f 80/86/18 82/88/18 95/102/18
f 87/103/1 1/1/1 7/7/1
f 8/8/3 96/104/3 9/9/3
f 97/105/22 98/106/22 99/107/22
f 100/108/23 101/109/23 102/110/23
f 103/111/24 104/112/24 105/113/24
f 106/114/25 107/115/25 108/116/25
f 109/117/24 103/111/24 105/113/24
f 110/118/25 107/115/25 106/114/25
f 111/119/26 112/120/26 113/121/26
f 114/122/27 115/123/27 116/124/27
f 117/125/28 118/126/28 119/127/28
f 120/128/28 118/126/28 117/125/28
f 114/122/27 116/124/27 121/129/27
f 122/130/29 123/131/29 124/132/29
f 125/133/30 126/134/30 127/135/30
f 128/136/31 129/137/31 130/138/31
f 131/139/31 129/137/31 128/136/31
f 125/133/30 127/135/30 132/140/30
f 133/141/32 134/142/32 135/143/32
f 136/144/33 137/145/33 138/146/33
f 100/108/23 139/147/23 101/109/23
f 136/144/33 138/146/33 140/148/33
f 141/149/34 142/150/34 143/151/34
f 141/149/34 144/152/34 142/150/34
f 145/153/35 146/154/35 147/155/35
f 148/156/36 149/157/36 150/158/36
f 148/156/36 151/159/36 149/157/36
f 152/160/37 153/161/37 154/162/37
f 155/163/38 156/164/38 157/165/38
f 158/166/39 159/167/39 160/168/39
f 161/169/35 145/153/35 147/155/35
f 162/170/39 163/171/39 159/172/39
f 158/173/39 162/170/39 159/172/39
f 23/23/2 164/174/2 165/175/2
f 166/176/39 160/168/39 167/177/39
f 4/4/2 23/23/2 165/175/2
f 166/176/39 158/166/39 160/168/39
f 168/178/40 169/179/40 170/180/40
f 171/181/41 172/182/41 173/183/41
f 162/170/39 174/184/39 163/171/39
f 175/185/42 176/186/42 177/187/42
f 178/188/43 179/189/43 180/190/43
f 181/191/37 152/160/37 154/162/37
f 182/192/43 183/193/43 179/194/43
f 182/195/43 179/189/43 178/188/43
f 184/196/42 185/197/42 186/198/42
f 187/199/43 180/190/43 188/200/43
f 175/185/42 184/196/42 186/198/42
f 187/199/43 178/188/43 180/190/43
f 189/201/44 190/202/44 191/203/44
f 192/204/18 95/102/18 193/205/18
f 194/206/43 195/207/43 183/193/43
f 196/208/43 194/206/43 183/193/43
f 182/192/43 196/208/43 183/193/43
f 192/204/18 80/86/18 95/102/18
f 197/209/45 198/210/45 199/211/45
f 200/212/46 201/213/46 202/214/46
f 203/215/46 200/212/46 202/214/46
f 204/216/43 205/217/43 195/207/43
f 194/206/43 204/216/43 195/207/43
f 206/218/47 207/219/47 208/220/47
f 209/221/35 210/222/35 211/223/35
f 209/221/35 212/224/35 210/222/35
f 213/225/34 214/226/34 215/227/34
f 216/228/47 206/218/47 208/220/47
f 217/229/43 218/230/43 205/231/43
f 204/232/43 217/229/43 205/231/43
f 219/233/48 220/234/48 221/235/48
f 222/236/40 223/237/40 224/238/40
f 217/229/43 225/239/43 218/230/43
f 226/240/49 227/241/49 228/242/49
f 229/243/50 230/244/50 231/245/50
f 232/246/34 213/225/34 215/227/34
f 233/247/50 234/248/50 230/249/50
f 229/243/50 233/250/50 230/244/50
f 235/251/49 236/252/49 226/240/49
f 235/251/49 237/253/49 236/252/49
f 238/254/50 231/245/50 239/255/50
f 238/254/50 229/243/50 231/245/50
f 240/256/38 241/257/38 242/258/38
f 243/259/13 71/75/13 244/260/13
f 245/261/50 246/262/50 234/248/50
f 247/263/50 245/261/50 234/248/50
f 233/247/50 247/263/50 234/248/50
f 243/259/13 56/60/13 71/75/13
f 248/264/51 249/265/51 250/266/51
f 251/267/52 252/268/52 253/269/52
f 254/270/52 251/267/52 253/269/52
f 255/271/50 256/272/50 246/262/50
f 245/261/50 255/271/50 246/262/50
f 257/273/53 258/274/53 259/275/53
f 260/276/47 261/277/47 262/278/47
f 260/276/47 263/279/47 261/277/47
f 264/280/46 265/281/46 266/282/46
f 267/283/53 257/273/53 259/275/53
f 268/284/50 269/285/50 256/286/50
f 255/287/50 268/284/50 256/286/50
f 270/288/54 271/289/54 272/290/54
f 273/291/48 274/292/48 275/293/48
f 268/284/50 276/294/50 269/285/50
f 277/295/55 278/296/55 279/297/55
f 280/298/56 281/299/56 282/300/56
f 283/301/46 264/280/46 266/282/46
f 284/302/56 285/303/56 281/304/56
f 280/298/56 284/305/56 281/299/56
f 286/306/55 287/307/55 288/308/55
f 289/309/56 282/300/56 290/310/56
f 277/295/55 286/306/55 288/308/55
f 289/309/56 280/298/56 282/300/56
f 291/311/45 292/312/45 293/313/45
f 294/314/8 48/50/8 295/315/8
f 296/316/56 297/317/56 285/303/56
f 298/318/56 296/316/56 285/303/56
f 284/302/56 298/318/56 285/303/56
f 294/314/8 32/34/8 48/50/8
f 299/319/44 300/320/44 301/321/44
f 302/322/37 303/323/37 304/324/37
f 305/325/37 302/322/37 304/324/37
f 306/326/56 307/327/56 297/317/56
f 296/316/56 306/326/56 297/317/56
f 308/328/36 309/329/36 310/330/36
f 311/331/53 312/332/53 313/333/53
f 311/331/53 314/334/53 312/332/53
f 315/335/52 316/336/52 317/337/52
f 318/338/36 308/328/36 310/330/36
f 319/339/56 320/340/56 307/341/56
f 306/342/56 319/339/56 307/341/56
f 321/343/41 322/344/41 323/345/41
f 324/346/54 325/347/54 326/348/54
f 319/339/56 327/349/56 320/340/56
f 328/350/57 329/351/57 330/352/57
f 331/353/39 332/354/39 333/355/39
f 334/356/52 315/335/52 317/337/52
f 335/357/39 167/177/39 332/358/39
f 331/353/39 335/359/39 332/354/39
f 336/360/39 333/355/39 337/361/39
f 338/362/57 339/363/57 340/364/57
f 336/360/39 331/353/39 333/355/39
f 338/362/57 340/364/57 328/350/57
f 341/365/51 342/366/51 343/367/51
f 344/368/39 166/176/39 167/177/39
f 335/357/39 344/368/39 167/177/39
f 336/360/39 337/361/39 345/369/39
f 346/370/58 347/371/58 348/372/58
f 349/373/59 350/374/59 351/375/59
f 352/376/39 353/377/39 174/184/39
f 354/378/60 355/379/60 356/380/60
f 162/170/39 352/376/39 174/184/39
f 357/381/60 355/379/60 354/378/60
f 358/382/61 359/383/61 360/384/61
f 175/185/42 177/187/42 184/196/42
f 361/385/39 362/386/39 353/387/39
f 363/388/62 364/389/62 365/390/62
f 361/391/39 353/377/39 352/376/39
f 366/392/62 364/389/62 363/388/62
f 367/393/39 368/394/39 362/386/39
f 369/395/63 370/396/63 371/397/63
f 372/398/39 367/393/39 362/386/39
f 361/385/39 372/398/39 362/386/39
f 373/399/64 374/400/64 375/401/64
f 376/402/39 345/403/39 368/394/39
f 377/404/65 378/405/65 379/406/65
f 367/393/39 376/402/39 368/394/39
f 380/407/65 378/405/65 377/404/65
f 381/408/66 382/409/66 383/410/66
f 369/395/63 371/397/63 384/411/63
f 376/412/39 336/360/39 345/369/39
f 385/413/58 347/371/58 346/370/58
f 386/414/67 387/415/67 388/416/67
f 389/417/68 390/418/68 391/419/68
f 392/420/69 393/421/69 394/422/69
f 395/423/70 396/424/70 397/425/70
f 398/426/69 392/420/69 394/422/69
f 399/427/70 396/424/70 395/423/70
f 400/428/71 401/429/71 402/430/71
f 403/431/72 404/432/72 405/433/72
f 406/434/73 407/435/73 408/436/73
f 409/437/73 407/435/73 406/434/73
f 403/431/72 405/433/72 410/438/72
f 411/439/74 412/440/74 413/441/74
f 414/442/75 415/443/75 416/444/75
f 417/445/76 418/446/76 419/447/76
f 420/448/76 418/446/76 417/445/76
f 414/442/75 416/444/75 421/449/75
f 422/450/77 423/451/77 424/452/77
f 425/453/78 426/454/78 427/455/78
f 389/417/68 428/456/68 390/418/68
f 425/453/78 427/455/78 429/457/78
f 430/458/79 431/459/79 432/460/79
f 433/461/80 434/462/80 435/463/80
f 430/458/79 436/464/79 431/459/79
f 437/465/81 438/466/81 439/467/81
f 440/468/7 441/469/7 442/470/7
f 440/468/7 443/471/7 441/469/7
f 444/472/5 445/473/5 446/474/5
f 447/475/56 448/476/56 327/349/56
f 449/477/81 437/465/81 439/467/81
f 450/478/56 451/479/56 448/480/56
f 450/481/56 448/476/56 447/475/56
f 319/339/56 447/475/56 327/349/56
f 338/362/57 328/350/57 330/352/57
f 452/482/82 453/483/82 454/484/82
f 455/485/9 456/486/9 457/487/9
f 458/488/56 459/489/56 451/479/56
f 460/490/83 461/491/83 462/492/83
f 463/493/56 458/488/56 451/479/56
f 450/478/56 463/493/56 451/479/56
f 464/494/84 465/495/84 466/496/84
f 467/497/5 444/472/5 446/474/5
f 468/498/84 469/499/84 465/500/84
f 464/501/84 468/498/84 465/500/84
f 470/502/83 471/503/83 472/504/83
f 473/505/84 466/496/84 474/506/84
f 460/490/83 470/502/83 472/504/83
f 473/505/84 464/494/84 466/496/84
f 475/507/6 476/508/6 477/509/6
f 478/510/63 384/411/63 479/511/63
f 468/498/84 480/512/84 469/499/84
f 478/510/63 369/395/63 384/411/63
f 481/513/4 482/514/4 483/515/4
f 484/516/3 485/517/3 486/518/3
f 487/519/3 484/516/3 486/518/3
f 488/520/84 489/521/84 480/512/84
f 468/498/84 488/520/84 480/512/84
f 490/522/20 491/523/20 492/524/20
f 493/525/81 494/526/81 495/527/81
f 493/525/81 496/528/81 494/526/81
f 497/529/79 498/530/79 499/531/79
f 500/532/20 490/522/20 492/524/20
f 501/533/84 502/534/84 489/535/84
f 488/520/84 501/536/84 489/521/84
f 503/537/21 504/538/21 505/539/21
f 506/540/82 507/541/82 508/542/82
f 509/543/84 510/544/84 502/534/84
f 511/545/85 512/546/85 513/547/85
f 514/548/84 509/543/84 502/534/84
f 501/533/84 514/548/84 502/534/84
f 515/549/43 516/550/43 517/551/43
f 518/552/79 497/529/79 499/531/79
f 187/199/43 188/200/43 516/553/43
f 515/554/43 187/199/43 516/553/43
f 519/555/43 517/551/43 520/556/43
f 521/557/85 522/558/85 523/559/85
f 519/555/43 515/549/43 517/551/43
f 521/557/85 523/559/85 511/545/85
f 524/560/80 525/561/80 526/562/80
f 527/563/43 528/564/43 225/239/43
f 529/565/86 530/566/86 531/567/86
f 217/229/43 527/563/43 225/239/43
f 235/251/49 226/240/49 228/242/49
f 532/568/87 533/569/87 534/570/87
f 529/565/86 535/571/86 530/566/86
f 536/572/43 520/556/43 528/573/43
f 537/574/88 538/575/88 539/576/88
f 527/563/43 536/577/43 528/564/43
f 537/574/88 540/578/88 538/575/88
f 541/579/43 519/555/43 520/556/43
f 536/572/43 541/579/43 520/556/43
f 542/580/89 543/581/89 544/582/89
f 545/583/90 546/584/90 547/585/90
f 548/586/91 549/587/91 550/588/91
f 551/589/92 552/590/92 553/591/92
f 554/592/93 555/593/93 556/594/93
f 557/595/92 551/589/92 553/591/92
f 558/596/93 555/593/93 554/592/93
f 559/597/94 560/598/94 561/599/94
f 562/600/95 563/601/95 564/602/95
f 565/603/96 566/604/96 567/605/96
f 568/606/96 566/604/96 565/603/96
f 562/600/95 564/602/95 569/607/95
f 570/608/97 571/609/97 572/610/97
f 573/611/98 574/612/98 575/613/98
f 576/614/99 577/615/99 578/616/99
f 579/617/99 577/615/99 576/614/99
f 573/611/98 575/613/98 580/618/98
f 581/619/100 582/620/100 583/621/100
f 584/622/101 585/623/101 586/624/101
f 548/586/91 587/625/91 549/587/91
f 584/622/101 586/624/101 588/626/101
f 589/627/61 590/628/61 591/629/61
f 592/630/60 593/631/60 594/632/60
f 238/254/50 239/255/50 595/633/50
f 596/634/60 592/630/60 594/632/60
f 597/635/62 598/636/62 599/637/62
f 600/638/50 595/639/50 601/640/50
f 600/641/50 238/254/50 595/633/50
f 602/642/17 603/643/17 604/644/17
f 602/642/17 605/645/17 603/643/17
f 606/646/15 607/647/15 608/648/15
f 597/635/62 599/637/62 609/649/62
f 610/650/19 611/651/19 612/652/19
f 613/653/84 614/654/84 510/544/84
f 615/655/15 606/646/15 608/648/15
f 616/656/84 617/657/84 614/658/84
f 613/659/84 616/656/84 614/658/84
f 509/543/84 613/653/84 510/544/84
f 521/557/85 511/545/85 513/547/85
f 618/660/16 619/661/16 620/662/16
f 621/663/64 622/664/64 623/665/64
f 616/656/84 624/666/84 617/657/84
f 625/667/102 626/668/102 627/669/102
f 628/670/50 601/640/50 629/671/50
f 630/672/102 631/673/102 632/674/102
f 628/670/50 600/638/50 601/640/50
f 625/667/102 630/672/102 632/674/102
f 633/675/50 634/676/50 276/294/50
f 635/677/58 636/678/58 637/679/58
f 268/284/50 633/675/50 276/294/50
f 277/295/55 279/297/55 286/306/55
f 638/680/59 639/681/59 640/682/59
f 641/683/58 636/678/58 635/677/58
f 642/684/50 629/671/50 634/685/50
f 643/686/65 644/687/65 645/688/65
f 642/689/50 634/676/50 633/675/50
f 643/686/65 646/690/65 644/687/65
f 647/691/50 628/670/50 629/671/50
f 642/684/50 647/691/50 629/671/50
f 648/692/66 649/693/66 650/694/66
f 651/695/103 652/696/103 653/697/103
f 654/698/104 655/699/104 656/700/104
f 657/701/105 658/702/105 659/703/105
f 660/704/106 661/705/106 662/706/106
f 663/707/105 657/701/105 659/703/105
f 664/708/106 661/705/106 660/704/106
f 665/709/107 666/710/107 667/711/107
f 668/712/108 669/713/108 670/714/108
f 671/715/109 672/716/109 673/717/109
f 674/718/109 672/716/109 671/715/109
f 668/712/108 670/714/108 675/719/108
f 676/720/110 677/721/110 678/722/110
f 679/723/111 680/724/111 681/725/111
f 682/726/112 683/727/112 684/728/112
f 685/729/112 683/727/112 682/726/112
f 679/723/111 681/725/111 686/730/111
f 687/731/113 688/732/113 689/733/113
f 690/734/114 691/735/114 692/736/114
f 654/698/104 693/737/104 655/699/104
f 690/734/114 692/736/114 694/738/114
f 695/739/87 696/740/87 697/741/87
f 289/309/56 290/310/56 698/742/56
f 699/743/86 700/744/86 701/745/86
f 702/746/56 698/747/56 459/489/56
f 703/748/88 704/749/88 705/750/88
f 458/488/56 702/746/56 459/489/56
f 706/751/88 704/749/88 703/748/88
f 707/752/89 708/753/89 709/754/89
f 460/490/83 462/492/83 470/502/83
f 702/755/56 289/309/56 698/742/56
f 699/743/86 710/756/86 700/744/86
f 711/757/115 712/758/115 713/759/115
f 714/760/116 715/761/116 716/762/116
f 717/763/117 718/764/117 719/765/117
f 720/766/118 721/767/118 722/768/118
f 723/769/117 717/763/117 719/765/117
f 724/770/118 721/767/118 720/766/118
f 725/771/119 726/772/119 727/773/119
f 728/774/120 729/775/120 730/776/120
f 731/777/121 732/778/121 733/779/121
f 734/780/121 732/778/121 731/777/121
f 728/774/120 730/776/120 735/781/120
f 736/782/122 737/783/122 738/784/122
f 739/785/123 740/786/123 741/787/123
f 742/788/124 743/789/124 744/790/124
f 745/791/124 743/789/124 742/788/124
f 739/785/123 741/787/123 746/792/123
f 747/793/125 748/794/125 749/795/125
f 750/796/126 751/797/126 752/798/126
f 714/760/116 753/799/116 715/761/116
f 750/796/126 752/798/126 754/800/126
f 755/801/12 756/802/12 757/803/12
f 755/801/12 758/804/12 756/802/12
f 759/805/10 760/806/10 761/807/10
f 762/808/14 763/809/14 764/810/14
f 765/811/84 766/812/84 624/666/84
f 767/813/10 759/805/10 761/807/10
f 768/814/84 474/506/84 766/815/84
f 768/816/84 766/812/84 765/811/84
f 616/656/84 765/811/84 624/666/84
f 625/667/102 627/669/102 630/672/102
f 769/817/11 770/818/11 771/819/11
f 772/820/84 473/505/84 474/506/84
f 768/814/84 772/820/84 474/506/84
f 773/821/127 774/822/127 775/823/127
f 776/824/128 777/825/128 778/826/128
f 779/827/129 780/828/129 781/829/129
f 782/830/130 783/831/130 784/832/130
f 785/833/129 779/827/129 781/829/129
f 786/834/130 783/831/130 782/830/130
f 787/835/131 788/836/131 789/837/131
f 790/838/132 791/839/132 792/840/132
f 793/841/133 794/842/133 795/843/133
f 796/844/133 794/842/133 793/841/133
f 790/838/132 792/840/132 797/845/132
f 798/846/134 799/847/134 800/848/134
f 801/849/135 802/850/135 803/851/135
f 804/852/136 805/853/136 806/854/136
f 807/855/136 805/853/136 804/852/136
f 801/849/135 803/851/135 808/856/135
f 809/857/137 810/858/137 811/859/137
f 812/860/138 813/861/138 814/862/138
f 776/824/128 815/863/128 777/825/128
f 812/860/138 814/862/138 816/864/138
f 817/865/84 818/866/84 819/867/84
f 817/865/84 820/868/84 818/866/84
f 821/869/84 817/865/84 819/867/84
f 822/870/84 821/869/84 819/867/84
f 822/870/84 823/871/84 821/869/84
f 822/870/84 824/872/84 823/871/84
f 825/873/56 826/874/56 827/875/56
f 825/873/56 828/876/56 826/874/56
f 829/877/56 825/873/56 827/875/56
f 830/878/56 829/877/56 827/875/56
f 830/878/56 831/879/56 829/877/56
f 830/878/56 832/880/56 831/879/56
f 833/881/50 834/882/50 835/883/50
f 833/881/50 836/884/50 834/882/50
f 837/885/50 833/881/50 835/883/50
f 838/886/50 837/885/50 835/883/50
f 838/886/50 839/887/50 837/885/50
f 838/886/50 840/888/50 839/887/50
f 841/889/43 842/890/43 843/891/43
f 841/889/43 844/892/43 842/890/43
f 845/893/43 841/889/43 843/891/43
f 846/894/43 845/893/43 843/891/43
f 846/894/43 847/895/43 845/893/43
f 846/894/43 848/896/43 847/895/43
f 849/897/39 850/898/39 851/899/39
f 849/897/39 852/900/39 850/898/39
f 853/901/39 849/897/39 851/899/39
f 854/902/39 853/901/39 851/899/39
f 854/902/39 855/903/39 853/901/39
f 854/902/39 856/904/39 855/903/39
f 857/905/1 858/906/1 859/907/1
f 857/905/1 860/908/1 858/906/1
f 861/909/1 857/905/1 859/907/1
f 862/910/1 861/909/1 859/907/1
f 862/910/1 863/911/1 861/909/1
f 862/910/1 864/912/1 863/911/1
